<?xml version="1.0" encoding="utf-8"?>
<!-- Generator: Adobe Illustrator 17.0.0, SVG Export Plug-In . SVG Version: 6.00 Build 0)  -->
<!DOCTYPE svg PUBLIC "-//W3C//DTD SVG 1.1//EN" "http://www.w3.org/Graphics/SVG/1.1/DTD/svg11.dtd">
<svg version="1.1" id="Layer_1" xmlns="http://www.w3.org/2000/svg" xmlns:xlink="http://www.w3.org/1999/xlink" x="0px" y="0px"
	 width="283.465px" height="283.465px" viewBox="0 0 283.465 283.465" enable-background="new 0 0 283.465 283.465"
	 xml:space="preserve">
<g>
	<g>
		<path fill="#F55A49" d="M141.776,263.62c-0.015,0-0.03,0-0.045,0c-3.504,0-7.039-0.15-10.505-0.446l0.426-4.982
			c3.325,0.284,6.717,0.429,10.08,0.429c0.015,0,0.028,0,0.043,0c2.485,0,5.002-0.08,7.483-0.237l0.316,4.99
			C146.989,263.537,144.365,263.62,141.776,263.62z M161.737,261.988l-0.814-4.934c5.779-0.954,11.531-2.357,17.096-4.172
			l1.551,4.754C173.765,259.529,167.765,260.993,161.737,261.988z M119.099,261.524c-6.005-1.127-11.971-2.723-17.733-4.743
			l1.654-4.719c5.524,1.938,11.244,3.467,17.001,4.548L119.099,261.524z M191.004,253.254l-2.021-4.572
			c5.345-2.364,10.562-5.159,15.504-8.309l2.688,4.217C202.018,247.874,196.579,250.789,191.004,253.254z M90.029,252.149
			c-5.524-2.59-10.903-5.627-15.989-9.026l2.779-4.156c4.876,3.26,10.035,6.172,15.333,8.655L90.029,252.149z M217.156,237.503
			l-3.096-3.926c4.6-3.626,8.964-7.631,12.971-11.902l3.646,3.422C226.5,229.549,221.951,233.724,217.156,237.503z M64.215,235.814
			c-4.713-3.885-9.17-8.158-13.248-12.701l3.721-3.34c3.912,4.357,8.188,8.457,12.707,12.184L64.215,235.814z M238.599,215.762
			l-3.969-3.041c3.565-4.655,6.805-9.616,9.626-14.743l4.381,2.41C245.694,205.735,242.317,210.908,238.599,215.762z
			 M43.254,213.606c-3.608-4.933-6.868-10.174-9.689-15.578l4.432-2.314c2.706,5.183,5.833,10.21,9.293,14.941L43.254,213.606z
			 M253.991,189.376l-4.602-1.957c2.295-5.396,4.194-11.008,5.646-16.682l4.844,1.238
			C258.365,177.895,256.385,183.749,253.991,189.376z M28.453,186.901c-2.266-5.67-4.115-11.562-5.499-17.514l4.871-1.131
			c1.325,5.705,3.099,11.354,5.271,16.789L28.453,186.901z M262.31,159.977l-4.945-0.744c0.868-5.769,1.309-11.675,1.309-17.554
			l-0.002-0.758l5-0.038l0.002,0.806C263.674,147.807,263.215,153.962,262.31,159.977z M20.788,157.336
			c-0.661-5.154-0.996-10.422-0.997-15.657c0-0.892,0.01-1.78,0.029-2.667l4.998,0.106c-0.018,0.851-0.027,1.705-0.027,2.56
			c0.001,5.023,0.322,10.078,0.956,15.023L20.788,157.336z M258.015,129.195c-0.618-5.833-1.685-11.658-3.17-17.311l4.836-1.271
			c1.549,5.896,2.661,11.971,3.307,18.054L258.015,129.195z M25.652,127.408l-4.963-0.604c0.739-6.074,1.945-12.13,3.585-18.001
			l4.816,1.346C27.517,115.777,26.361,121.584,25.652,127.408z M251.292,100.696c-2.05-5.478-4.537-10.847-7.393-15.958l4.365-2.438
			c2.979,5.331,5.572,10.931,7.711,16.644L251.292,100.696z M32.815,99.016l-4.654-1.825c2.227-5.681,4.911-11.247,7.978-16.541
			l4.326,2.506C37.524,88.232,34.951,93.569,32.815,99.016z M237.668,74.788c-3.354-4.8-7.101-9.387-11.135-13.634l3.625-3.443
			c4.206,4.427,8.111,9.209,11.607,14.213L237.668,74.788z M46.853,73.302l-4.055-2.927c3.574-4.95,7.555-9.672,11.829-14.035
			l3.572,3.499C54.099,64.024,50.281,68.554,46.853,73.302z M218.032,53.054c-4.442-3.828-9.207-7.347-14.162-10.461l2.66-4.233
			c5.167,3.247,10.135,6.917,14.766,10.907L218.032,53.054z M66.827,51.872l-3.205-3.838c4.692-3.918,9.715-7.508,14.928-10.671
			l2.594,4.274C76.143,44.671,71.327,48.114,66.827,51.872z M193.627,36.852c-5.254-2.605-10.745-4.829-16.323-6.607l1.52-4.764
			c5.817,1.855,11.546,4.174,17.024,6.892L193.627,36.852z M91.472,36.057l-2.152-4.514c5.514-2.628,11.273-4.856,17.12-6.622
			l1.445,4.786C102.279,31.401,96.757,33.537,91.472,36.057z M165.953,27.247c-5.715-1.204-11.585-1.983-17.447-2.318l0.285-4.992
			c6.112,0.349,12.233,1.163,18.192,2.417L165.953,27.247z M119.281,26.889l-0.955-4.908c5.976-1.162,12.107-1.88,18.227-2.137
			l0.209,4.996C130.891,25.086,125.011,25.775,119.281,26.889z"/>
	</g>
	<path fill="#F55A49" d="M141.732,34.732c-59.094,0-107,47.906-107,107c0,59.094,47.906,107,107,107s107-47.906,107-107
		C248.732,82.638,200.827,34.732,141.732,34.732z M142.327,208.453l-0.595-0.595l-0.595,0.595l-14.272-14.272l1.189-1.189
		l13.678,13.678l13.678-13.678l1.189,1.189L142.327,208.453z"/>
</g>
</svg>
