<?xml version="1.0" encoding="utf-8"?>
<!-- Generator: Adobe Illustrator 17.0.0, SVG Export Plug-In . SVG Version: 6.00 Build 0)  -->
<!DOCTYPE svg PUBLIC "-//W3C//DTD SVG 1.1//EN" "http://www.w3.org/Graphics/SVG/1.1/DTD/svg11.dtd">
<svg version="1.1" id="Layer_1" xmlns="http://www.w3.org/2000/svg" xmlns:xlink="http://www.w3.org/1999/xlink" x="0px" y="0px"
	 width="205.848px" height="197.468px" viewBox="0 0 205.848 197.468" enable-background="new 0 0 205.848 197.468"
	 xml:space="preserve">
<g>
	<rect x="130.465" y="5.773" fill="#794C66" width="25.181" height="29.806"/>
	<rect x="127.579" y="0" fill="#632B4F" width="30.953" height="6.98"/>
</g>
<g>
	<polygon fill="#632B4F" points="205.848,128.758 0,128.758 27.737,24.713 178.132,24.713 	"/>
</g>
<polygon fill="#F4F4DA" stroke="#FBBA90" stroke-width="4.2428" stroke-miterlimit="10" points="6.348,129.204 102.463,34.654 
	198.582,129.204 198.582,194.598 6.348,194.598 "/>
<g>
	<g>
		<g>
			<defs>
				<rect id="SVGID_1_" x="8.911" y="132.625" width="187.707" height="60.194"/>
			</defs>
			<clipPath id="SVGID_2_">
				<use xlink:href="#SVGID_1_"  overflow="visible"/>
			</clipPath>
			<g display="none" clip-path="url(#SVGID_2_)">
				<g display="inline">
					<circle fill="#AAD8CB" cx="187.741" cy="194.465" r="1.155"/>
					<circle fill="#AAD8CB" cx="192.992" cy="194.465" r="1.155"/>
					<circle fill="#AAD8CB" cx="198.243" cy="194.465" r="1.155"/>
					<circle fill="#AAD8CB" cx="203.494" cy="194.465" r="1.155"/>
					<circle fill="#AAD8CB" cx="208.745" cy="194.465" r="1.155"/>
					<circle fill="#AAD8CB" cx="161.487" cy="194.465" r="1.155"/>
					<circle fill="#AAD8CB" cx="166.738" cy="194.465" r="1.155"/>
					<circle fill="#AAD8CB" cx="171.989" cy="194.465" r="1.155"/>
					<circle fill="#AAD8CB" cx="177.24" cy="194.465" r="1.155"/>
					<circle fill="#AAD8CB" cx="182.491" cy="194.465" r="1.155"/>
					<circle fill="#AAD8CB" cx="135.232" cy="194.465" r="1.155"/>
					<circle fill="#AAD8CB" cx="140.483" cy="194.465" r="1.155"/>
					<circle fill="#AAD8CB" cx="145.734" cy="194.465" r="1.155"/>
					<circle fill="#AAD8CB" cx="150.985" cy="194.465" r="1.155"/>
					<circle fill="#AAD8CB" cx="156.236" cy="194.465" r="1.155"/>
					<circle fill="#AAD8CB" cx="108.977" cy="194.465" r="1.155"/>
					<circle fill="#AAD8CB" cx="114.228" cy="194.465" r="1.155"/>
					<circle fill="#AAD8CB" cx="119.479" cy="194.465" r="1.155"/>
					<circle fill="#AAD8CB" cx="124.73" cy="194.465" r="1.155"/>
					<circle fill="#AAD8CB" cx="129.981" cy="194.465" r="1.155"/>
					<circle fill="#AAD8CB" cx="82.722" cy="194.465" r="1.155"/>
					<circle fill="#AAD8CB" cx="87.973" cy="194.465" r="1.155"/>
					<circle fill="#AAD8CB" cx="93.224" cy="194.465" r="1.155"/>
					<circle fill="#AAD8CB" cx="98.475" cy="194.465" r="1.155"/>
					<circle fill="#AAD8CB" cx="103.726" cy="194.465" r="1.155"/>
					<circle fill="#AAD8CB" cx="56.467" cy="194.465" r="1.155"/>
					<circle fill="#AAD8CB" cx="61.718" cy="194.465" r="1.155"/>
					<circle fill="#AAD8CB" cx="66.969" cy="194.465" r="1.155"/>
					<circle fill="#AAD8CB" cx="72.22" cy="194.465" r="1.155"/>
					<circle fill="#AAD8CB" cx="77.471" cy="194.465" r="1.155"/>
					<circle fill="#AAD8CB" cx="30.213" cy="194.465" r="1.155"/>
					<circle fill="#AAD8CB" cx="35.464" cy="194.465" r="1.155"/>
					<circle fill="#AAD8CB" cx="40.715" cy="194.465" r="1.155"/>
					<circle fill="#AAD8CB" cx="45.966" cy="194.465" r="1.155"/>
					<circle fill="#AAD8CB" cx="51.216" cy="194.465" r="1.155"/>
					<circle fill="#AAD8CB" cx="3.958" cy="194.465" r="1.155"/>
					<circle fill="#AAD8CB" cx="9.209" cy="194.465" r="1.155"/>
					<circle fill="#AAD8CB" cx="14.46" cy="194.465" r="1.155"/>
					<circle fill="#AAD8CB" cx="19.711" cy="194.465" r="1.155"/>
					<circle fill="#AAD8CB" cx="24.962" cy="194.465" r="1.155"/>
				</g>
				<g display="inline">
					<circle fill="#AAD8CB" cx="185.116" cy="189.77" r="1.155"/>
					<circle fill="#AAD8CB" cx="190.367" cy="189.77" r="1.155"/>
					<circle fill="#AAD8CB" cx="195.618" cy="189.77" r="1.155"/>
					<circle fill="#AAD8CB" cx="200.869" cy="189.77" r="1.155"/>
					<circle fill="#AAD8CB" cx="206.12" cy="189.77" r="1.155"/>
					<circle fill="#AAD8CB" cx="158.861" cy="189.77" r="1.155"/>
					<circle fill="#AAD8CB" cx="164.112" cy="189.77" r="1.155"/>
					<circle fill="#AAD8CB" cx="169.363" cy="189.77" r="1.155"/>
					<circle fill="#AAD8CB" cx="174.614" cy="189.77" r="1.155"/>
					<circle fill="#AAD8CB" cx="179.865" cy="189.77" r="1.155"/>
					<circle fill="#AAD8CB" cx="132.606" cy="189.77" r="1.155"/>
					<circle fill="#AAD8CB" cx="137.857" cy="189.77" r="1.155"/>
					<circle fill="#AAD8CB" cx="143.108" cy="189.77" r="1.155"/>
					<circle fill="#AAD8CB" cx="148.359" cy="189.77" r="1.155"/>
					<circle fill="#AAD8CB" cx="153.61" cy="189.77" r="1.155"/>
					<circle fill="#AAD8CB" cx="106.352" cy="189.77" r="1.155"/>
					<circle fill="#AAD8CB" cx="111.603" cy="189.77" r="1.155"/>
					<circle fill="#AAD8CB" cx="116.854" cy="189.77" r="1.155"/>
					<circle fill="#AAD8CB" cx="122.104" cy="189.77" r="1.155"/>
					<circle fill="#AAD8CB" cx="127.355" cy="189.77" r="1.155"/>
					<circle fill="#AAD8CB" cx="80.097" cy="189.77" r="1.155"/>
					<circle fill="#AAD8CB" cx="85.348" cy="189.77" r="1.155"/>
					<circle fill="#AAD8CB" cx="90.599" cy="189.77" r="1.155"/>
					<circle fill="#AAD8CB" cx="95.85" cy="189.77" r="1.155"/>
					<circle fill="#AAD8CB" cx="101.101" cy="189.77" r="1.155"/>
					<circle fill="#AAD8CB" cx="53.842" cy="189.77" r="1.155"/>
					<circle fill="#AAD8CB" cx="59.093" cy="189.77" r="1.155"/>
					<circle fill="#AAD8CB" cx="64.344" cy="189.77" r="1.155"/>
					<circle fill="#AAD8CB" cx="69.595" cy="189.77" r="1.155"/>
					<circle fill="#AAD8CB" cx="74.846" cy="189.77" r="1.155"/>
					<circle fill="#AAD8CB" cx="27.587" cy="189.77" r="1.155"/>
					<circle fill="#AAD8CB" cx="32.838" cy="189.77" r="1.155"/>
					<circle fill="#AAD8CB" cx="38.089" cy="189.77" r="1.155"/>
					<circle fill="#AAD8CB" cx="43.34" cy="189.77" r="1.155"/>
					<circle fill="#AAD8CB" cx="48.591" cy="189.77" r="1.155"/>
					<circle fill="#AAD8CB" cx="1.332" cy="189.77" r="1.155"/>
					<circle fill="#AAD8CB" cx="6.583" cy="189.77" r="1.155"/>
					<circle fill="#AAD8CB" cx="11.834" cy="189.77" r="1.155"/>
					<circle fill="#AAD8CB" cx="17.085" cy="189.77" r="1.155"/>
					<circle fill="#AAD8CB" cx="22.336" cy="189.77" r="1.155"/>
				</g>
				<g display="inline">
					<circle fill="#AAD8CB" cx="187.741" cy="204.14" r="1.155"/>
					<circle fill="#AAD8CB" cx="192.992" cy="204.14" r="1.155"/>
					<circle fill="#AAD8CB" cx="198.243" cy="204.14" r="1.155"/>
					<circle fill="#AAD8CB" cx="203.494" cy="204.14" r="1.155"/>
					<circle fill="#AAD8CB" cx="208.745" cy="204.14" r="1.155"/>
					<circle fill="#AAD8CB" cx="161.487" cy="204.14" r="1.155"/>
					<circle fill="#AAD8CB" cx="166.738" cy="204.14" r="1.155"/>
					<circle fill="#AAD8CB" cx="171.989" cy="204.14" r="1.155"/>
					<circle fill="#AAD8CB" cx="177.24" cy="204.14" r="1.155"/>
					<circle fill="#AAD8CB" cx="182.491" cy="204.14" r="1.155"/>
					<circle fill="#AAD8CB" cx="135.232" cy="204.14" r="1.155"/>
					<circle fill="#AAD8CB" cx="140.483" cy="204.14" r="1.155"/>
					<circle fill="#AAD8CB" cx="145.734" cy="204.14" r="1.155"/>
					<circle fill="#AAD8CB" cx="150.985" cy="204.14" r="1.155"/>
					<circle fill="#AAD8CB" cx="156.236" cy="204.14" r="1.155"/>
					<circle fill="#AAD8CB" cx="108.977" cy="204.14" r="1.155"/>
					<circle fill="#AAD8CB" cx="114.228" cy="204.14" r="1.155"/>
					<circle fill="#AAD8CB" cx="119.479" cy="204.14" r="1.155"/>
					<circle fill="#AAD8CB" cx="124.73" cy="204.14" r="1.155"/>
					<circle fill="#AAD8CB" cx="129.981" cy="204.14" r="1.155"/>
					<circle fill="#AAD8CB" cx="82.722" cy="204.14" r="1.155"/>
					<circle fill="#AAD8CB" cx="87.973" cy="204.14" r="1.155"/>
					<circle fill="#AAD8CB" cx="93.224" cy="204.14" r="1.155"/>
					<circle fill="#AAD8CB" cx="98.475" cy="204.14" r="1.155"/>
					<circle fill="#AAD8CB" cx="103.726" cy="204.14" r="1.155"/>
					<circle fill="#AAD8CB" cx="56.467" cy="204.14" r="1.155"/>
					<circle fill="#AAD8CB" cx="61.718" cy="204.14" r="1.155"/>
					<circle fill="#AAD8CB" cx="66.969" cy="204.14" r="1.155"/>
					<circle fill="#AAD8CB" cx="72.22" cy="204.14" r="1.155"/>
					<circle fill="#AAD8CB" cx="77.471" cy="204.14" r="1.155"/>
					<circle fill="#AAD8CB" cx="30.213" cy="204.14" r="1.155"/>
					<circle fill="#AAD8CB" cx="35.464" cy="204.14" r="1.155"/>
					<circle fill="#AAD8CB" cx="40.715" cy="204.14" r="1.155"/>
					<circle fill="#AAD8CB" cx="45.966" cy="204.14" r="1.155"/>
					<circle fill="#AAD8CB" cx="51.216" cy="204.14" r="1.155"/>
					<circle fill="#AAD8CB" cx="3.958" cy="204.14" r="1.155"/>
					<circle fill="#AAD8CB" cx="9.209" cy="204.14" r="1.155"/>
					<circle fill="#AAD8CB" cx="14.46" cy="204.14" r="1.155"/>
					<circle fill="#AAD8CB" cx="19.711" cy="204.14" r="1.155"/>
					<circle fill="#AAD8CB" cx="24.962" cy="204.14" r="1.155"/>
				</g>
				<g display="inline">
					<circle fill="#AAD8CB" cx="185.116" cy="199.445" r="1.155"/>
					<circle fill="#AAD8CB" cx="190.367" cy="199.445" r="1.155"/>
					<circle fill="#AAD8CB" cx="195.618" cy="199.445" r="1.155"/>
					<circle fill="#AAD8CB" cx="200.869" cy="199.445" r="1.155"/>
					<circle fill="#AAD8CB" cx="206.12" cy="199.445" r="1.155"/>
					<circle fill="#AAD8CB" cx="158.861" cy="199.445" r="1.155"/>
					<circle fill="#AAD8CB" cx="164.112" cy="199.445" r="1.155"/>
					<circle fill="#AAD8CB" cx="169.363" cy="199.445" r="1.155"/>
					<circle fill="#AAD8CB" cx="174.614" cy="199.445" r="1.155"/>
					<circle fill="#AAD8CB" cx="179.865" cy="199.445" r="1.155"/>
					<circle fill="#AAD8CB" cx="132.606" cy="199.445" r="1.155"/>
					<circle fill="#AAD8CB" cx="137.857" cy="199.445" r="1.155"/>
					<circle fill="#AAD8CB" cx="143.108" cy="199.445" r="1.155"/>
					<circle fill="#AAD8CB" cx="148.359" cy="199.445" r="1.155"/>
					<circle fill="#AAD8CB" cx="153.61" cy="199.445" r="1.155"/>
					<circle fill="#AAD8CB" cx="106.352" cy="199.445" r="1.155"/>
					<circle fill="#AAD8CB" cx="111.603" cy="199.445" r="1.155"/>
					<circle fill="#AAD8CB" cx="116.854" cy="199.445" r="1.155"/>
					<circle fill="#AAD8CB" cx="122.104" cy="199.445" r="1.155"/>
					<circle fill="#AAD8CB" cx="127.355" cy="199.445" r="1.155"/>
					<circle fill="#AAD8CB" cx="80.097" cy="199.445" r="1.155"/>
					<circle fill="#AAD8CB" cx="85.348" cy="199.445" r="1.155"/>
					<circle fill="#AAD8CB" cx="90.599" cy="199.445" r="1.155"/>
					<circle fill="#AAD8CB" cx="95.85" cy="199.445" r="1.155"/>
					<circle fill="#AAD8CB" cx="101.101" cy="199.445" r="1.155"/>
					<circle fill="#AAD8CB" cx="53.842" cy="199.445" r="1.155"/>
					<circle fill="#AAD8CB" cx="59.093" cy="199.445" r="1.155"/>
					<circle fill="#AAD8CB" cx="64.344" cy="199.445" r="1.155"/>
					<circle fill="#AAD8CB" cx="69.595" cy="199.445" r="1.155"/>
					<circle fill="#AAD8CB" cx="74.846" cy="199.445" r="1.155"/>
					<circle fill="#AAD8CB" cx="27.587" cy="199.445" r="1.155"/>
					<circle fill="#AAD8CB" cx="32.838" cy="199.445" r="1.155"/>
					<circle fill="#AAD8CB" cx="38.089" cy="199.445" r="1.155"/>
					<circle fill="#AAD8CB" cx="43.34" cy="199.445" r="1.155"/>
					<circle fill="#AAD8CB" cx="48.591" cy="199.445" r="1.155"/>
					<circle fill="#AAD8CB" cx="1.332" cy="199.445" r="1.155"/>
					<circle fill="#AAD8CB" cx="6.583" cy="199.445" r="1.155"/>
					<circle fill="#AAD8CB" cx="11.834" cy="199.445" r="1.155"/>
					<circle fill="#AAD8CB" cx="17.085" cy="199.445" r="1.155"/>
					<circle fill="#AAD8CB" cx="22.336" cy="199.445" r="1.155"/>
				</g>
				<g display="inline">
					<circle fill="#AAD8CB" cx="187.741" cy="213.59" r="1.155"/>
					<circle fill="#AAD8CB" cx="192.992" cy="213.59" r="1.155"/>
					<circle fill="#AAD8CB" cx="198.243" cy="213.59" r="1.155"/>
					<circle fill="#AAD8CB" cx="203.494" cy="213.59" r="1.155"/>
					<circle fill="#AAD8CB" cx="208.745" cy="213.59" r="1.155"/>
					<circle fill="#AAD8CB" cx="161.487" cy="213.59" r="1.155"/>
					<circle fill="#AAD8CB" cx="166.738" cy="213.59" r="1.155"/>
					<circle fill="#AAD8CB" cx="171.989" cy="213.59" r="1.155"/>
					<circle fill="#AAD8CB" cx="177.24" cy="213.59" r="1.155"/>
					<circle fill="#AAD8CB" cx="182.491" cy="213.59" r="1.155"/>
					<circle fill="#AAD8CB" cx="135.232" cy="213.59" r="1.155"/>
					<circle fill="#AAD8CB" cx="140.483" cy="213.59" r="1.155"/>
					<circle fill="#AAD8CB" cx="145.734" cy="213.59" r="1.155"/>
					<circle fill="#AAD8CB" cx="150.985" cy="213.59" r="1.155"/>
					<circle fill="#AAD8CB" cx="156.236" cy="213.59" r="1.155"/>
					<circle fill="#AAD8CB" cx="108.977" cy="213.59" r="1.155"/>
					<circle fill="#AAD8CB" cx="114.228" cy="213.59" r="1.155"/>
					<circle fill="#AAD8CB" cx="119.479" cy="213.59" r="1.155"/>
					<circle fill="#AAD8CB" cx="124.73" cy="213.59" r="1.155"/>
					<circle fill="#AAD8CB" cx="129.981" cy="213.59" r="1.155"/>
					<circle fill="#AAD8CB" cx="82.722" cy="213.59" r="1.155"/>
					<circle fill="#AAD8CB" cx="87.973" cy="213.59" r="1.155"/>
					<circle fill="#AAD8CB" cx="93.224" cy="213.59" r="1.155"/>
					<circle fill="#AAD8CB" cx="98.475" cy="213.59" r="1.155"/>
					<circle fill="#AAD8CB" cx="103.726" cy="213.59" r="1.155"/>
					<circle fill="#AAD8CB" cx="56.467" cy="213.59" r="1.155"/>
					<circle fill="#AAD8CB" cx="61.718" cy="213.59" r="1.155"/>
					<circle fill="#AAD8CB" cx="66.969" cy="213.59" r="1.155"/>
					<circle fill="#AAD8CB" cx="72.22" cy="213.59" r="1.155"/>
					<circle fill="#AAD8CB" cx="77.471" cy="213.59" r="1.155"/>
					<circle fill="#AAD8CB" cx="30.213" cy="213.59" r="1.155"/>
					<circle fill="#AAD8CB" cx="35.464" cy="213.59" r="1.155"/>
					<circle fill="#AAD8CB" cx="40.715" cy="213.59" r="1.155"/>
					<circle fill="#AAD8CB" cx="45.966" cy="213.59" r="1.155"/>
					<circle fill="#AAD8CB" cx="51.216" cy="213.59" r="1.155"/>
					<circle fill="#AAD8CB" cx="3.958" cy="213.59" r="1.155"/>
					<circle fill="#AAD8CB" cx="9.209" cy="213.59" r="1.155"/>
					<circle fill="#AAD8CB" cx="14.46" cy="213.59" r="1.155"/>
					<circle fill="#AAD8CB" cx="19.711" cy="213.59" r="1.155"/>
					<circle fill="#AAD8CB" cx="24.962" cy="213.59" r="1.155"/>
				</g>
				<g display="inline">
					<circle fill="#AAD8CB" cx="185.116" cy="208.895" r="1.155"/>
					<circle fill="#AAD8CB" cx="190.367" cy="208.895" r="1.155"/>
					<circle fill="#AAD8CB" cx="195.618" cy="208.895" r="1.155"/>
					<circle fill="#AAD8CB" cx="200.869" cy="208.895" r="1.155"/>
					<circle fill="#AAD8CB" cx="206.12" cy="208.895" r="1.155"/>
					<circle fill="#AAD8CB" cx="158.861" cy="208.895" r="1.155"/>
					<circle fill="#AAD8CB" cx="164.112" cy="208.895" r="1.155"/>
					<circle fill="#AAD8CB" cx="169.363" cy="208.895" r="1.155"/>
					<circle fill="#AAD8CB" cx="174.614" cy="208.895" r="1.155"/>
					<circle fill="#AAD8CB" cx="179.865" cy="208.895" r="1.155"/>
					<circle fill="#AAD8CB" cx="132.606" cy="208.895" r="1.155"/>
					<circle fill="#AAD8CB" cx="137.857" cy="208.895" r="1.155"/>
					<circle fill="#AAD8CB" cx="143.108" cy="208.895" r="1.155"/>
					<circle fill="#AAD8CB" cx="148.359" cy="208.895" r="1.155"/>
					<circle fill="#AAD8CB" cx="153.61" cy="208.895" r="1.155"/>
					<circle fill="#AAD8CB" cx="106.352" cy="208.895" r="1.155"/>
					<circle fill="#AAD8CB" cx="111.603" cy="208.895" r="1.155"/>
					<circle fill="#AAD8CB" cx="116.854" cy="208.895" r="1.155"/>
					<circle fill="#AAD8CB" cx="122.104" cy="208.895" r="1.155"/>
					<circle fill="#AAD8CB" cx="127.355" cy="208.895" r="1.155"/>
					<circle fill="#AAD8CB" cx="80.097" cy="208.895" r="1.155"/>
					<circle fill="#AAD8CB" cx="85.348" cy="208.895" r="1.155"/>
					<circle fill="#AAD8CB" cx="90.599" cy="208.895" r="1.155"/>
					<circle fill="#AAD8CB" cx="95.85" cy="208.895" r="1.155"/>
					<circle fill="#AAD8CB" cx="101.101" cy="208.895" r="1.155"/>
					<circle fill="#AAD8CB" cx="53.842" cy="208.895" r="1.155"/>
					<circle fill="#AAD8CB" cx="59.093" cy="208.895" r="1.155"/>
					<circle fill="#AAD8CB" cx="64.344" cy="208.895" r="1.155"/>
					<circle fill="#AAD8CB" cx="69.595" cy="208.895" r="1.155"/>
					<circle fill="#AAD8CB" cx="74.846" cy="208.895" r="1.155"/>
					<circle fill="#AAD8CB" cx="27.587" cy="208.895" r="1.155"/>
					<circle fill="#AAD8CB" cx="32.838" cy="208.895" r="1.155"/>
					<circle fill="#AAD8CB" cx="38.089" cy="208.895" r="1.155"/>
					<circle fill="#AAD8CB" cx="43.34" cy="208.895" r="1.155"/>
					<circle fill="#AAD8CB" cx="48.591" cy="208.895" r="1.155"/>
					<circle fill="#AAD8CB" cx="1.332" cy="208.895" r="1.155"/>
					<circle fill="#AAD8CB" cx="6.583" cy="208.895" r="1.155"/>
					<circle fill="#AAD8CB" cx="11.834" cy="208.895" r="1.155"/>
					<circle fill="#AAD8CB" cx="17.085" cy="208.895" r="1.155"/>
					<circle fill="#AAD8CB" cx="22.336" cy="208.895" r="1.155"/>
				</g>
				<g display="inline">
					<circle fill="#AAD8CB" cx="187.741" cy="223.039" r="1.155"/>
					<circle fill="#AAD8CB" cx="192.992" cy="223.039" r="1.155"/>
					<circle fill="#AAD8CB" cx="198.243" cy="223.039" r="1.155"/>
					<circle fill="#AAD8CB" cx="203.494" cy="223.039" r="1.155"/>
					<circle fill="#AAD8CB" cx="208.745" cy="223.039" r="1.155"/>
					<circle fill="#AAD8CB" cx="161.487" cy="223.039" r="1.155"/>
					<circle fill="#AAD8CB" cx="166.738" cy="223.039" r="1.155"/>
					<circle fill="#AAD8CB" cx="171.989" cy="223.039" r="1.155"/>
					<circle fill="#AAD8CB" cx="177.24" cy="223.039" r="1.155"/>
					<circle fill="#AAD8CB" cx="182.491" cy="223.039" r="1.155"/>
					<circle fill="#AAD8CB" cx="135.232" cy="223.039" r="1.155"/>
					<circle fill="#AAD8CB" cx="140.483" cy="223.039" r="1.155"/>
					<circle fill="#AAD8CB" cx="145.734" cy="223.039" r="1.155"/>
					<circle fill="#AAD8CB" cx="150.985" cy="223.039" r="1.155"/>
					<circle fill="#AAD8CB" cx="156.236" cy="223.039" r="1.155"/>
					<circle fill="#AAD8CB" cx="108.977" cy="223.039" r="1.155"/>
					<circle fill="#AAD8CB" cx="114.228" cy="223.039" r="1.155"/>
					<circle fill="#AAD8CB" cx="119.479" cy="223.039" r="1.155"/>
					<circle fill="#AAD8CB" cx="124.73" cy="223.039" r="1.155"/>
					<circle fill="#AAD8CB" cx="129.981" cy="223.039" r="1.155"/>
					<circle fill="#AAD8CB" cx="82.722" cy="223.039" r="1.155"/>
					<circle fill="#AAD8CB" cx="87.973" cy="223.039" r="1.155"/>
					<circle fill="#AAD8CB" cx="93.224" cy="223.039" r="1.155"/>
					<circle fill="#AAD8CB" cx="98.475" cy="223.039" r="1.155"/>
					<circle fill="#AAD8CB" cx="103.726" cy="223.039" r="1.155"/>
					<circle fill="#AAD8CB" cx="56.467" cy="223.039" r="1.155"/>
					<circle fill="#AAD8CB" cx="61.718" cy="223.039" r="1.155"/>
					<circle fill="#AAD8CB" cx="66.969" cy="223.039" r="1.155"/>
					<circle fill="#AAD8CB" cx="72.22" cy="223.039" r="1.155"/>
					<circle fill="#AAD8CB" cx="77.471" cy="223.039" r="1.155"/>
					<circle fill="#AAD8CB" cx="30.213" cy="223.039" r="1.155"/>
					<circle fill="#AAD8CB" cx="35.464" cy="223.039" r="1.155"/>
					<circle fill="#AAD8CB" cx="40.715" cy="223.039" r="1.155"/>
					<circle fill="#AAD8CB" cx="45.966" cy="223.039" r="1.155"/>
					<circle fill="#AAD8CB" cx="51.216" cy="223.039" r="1.155"/>
					<circle fill="#AAD8CB" cx="3.958" cy="223.039" r="1.155"/>
					<circle fill="#AAD8CB" cx="9.209" cy="223.039" r="1.155"/>
					<circle fill="#AAD8CB" cx="14.46" cy="223.039" r="1.155"/>
					<circle fill="#AAD8CB" cx="19.711" cy="223.039" r="1.155"/>
					<circle fill="#AAD8CB" cx="24.962" cy="223.039" r="1.155"/>
				</g>
				<g display="inline">
					<circle fill="#AAD8CB" cx="185.116" cy="218.345" r="1.155"/>
					<circle fill="#AAD8CB" cx="190.367" cy="218.345" r="1.155"/>
					<circle fill="#AAD8CB" cx="195.618" cy="218.345" r="1.155"/>
					<circle fill="#AAD8CB" cx="200.869" cy="218.345" r="1.155"/>
					<circle fill="#AAD8CB" cx="206.12" cy="218.345" r="1.155"/>
					<circle fill="#AAD8CB" cx="158.861" cy="218.345" r="1.155"/>
					<circle fill="#AAD8CB" cx="164.112" cy="218.345" r="1.155"/>
					<circle fill="#AAD8CB" cx="169.363" cy="218.345" r="1.155"/>
					<circle fill="#AAD8CB" cx="174.614" cy="218.345" r="1.155"/>
					<circle fill="#AAD8CB" cx="179.865" cy="218.345" r="1.155"/>
					<circle fill="#AAD8CB" cx="132.606" cy="218.345" r="1.155"/>
					<circle fill="#AAD8CB" cx="137.857" cy="218.345" r="1.155"/>
					<circle fill="#AAD8CB" cx="143.108" cy="218.345" r="1.155"/>
					<circle fill="#AAD8CB" cx="148.359" cy="218.345" r="1.155"/>
					<circle fill="#AAD8CB" cx="153.61" cy="218.345" r="1.155"/>
					<circle fill="#AAD8CB" cx="106.352" cy="218.345" r="1.155"/>
					<circle fill="#AAD8CB" cx="111.603" cy="218.345" r="1.155"/>
					<circle fill="#AAD8CB" cx="116.854" cy="218.345" r="1.155"/>
					<circle fill="#AAD8CB" cx="122.104" cy="218.345" r="1.155"/>
					<circle fill="#AAD8CB" cx="127.355" cy="218.345" r="1.155"/>
					<circle fill="#AAD8CB" cx="80.097" cy="218.345" r="1.155"/>
					<circle fill="#AAD8CB" cx="85.348" cy="218.345" r="1.155"/>
					<circle fill="#AAD8CB" cx="90.599" cy="218.345" r="1.155"/>
					<circle fill="#AAD8CB" cx="95.85" cy="218.345" r="1.155"/>
					<circle fill="#AAD8CB" cx="101.101" cy="218.345" r="1.155"/>
					<circle fill="#AAD8CB" cx="53.842" cy="218.345" r="1.155"/>
					<circle fill="#AAD8CB" cx="59.093" cy="218.345" r="1.155"/>
					<circle fill="#AAD8CB" cx="64.344" cy="218.345" r="1.155"/>
					<circle fill="#AAD8CB" cx="69.595" cy="218.345" r="1.155"/>
					<circle fill="#AAD8CB" cx="74.846" cy="218.345" r="1.155"/>
					<circle fill="#AAD8CB" cx="27.587" cy="218.345" r="1.155"/>
					<circle fill="#AAD8CB" cx="32.838" cy="218.345" r="1.155"/>
					<circle fill="#AAD8CB" cx="38.089" cy="218.345" r="1.155"/>
					<circle fill="#AAD8CB" cx="43.34" cy="218.345" r="1.155"/>
					<circle fill="#AAD8CB" cx="48.591" cy="218.345" r="1.155"/>
					<circle fill="#AAD8CB" cx="1.332" cy="218.345" r="1.155"/>
					<circle fill="#AAD8CB" cx="6.583" cy="218.345" r="1.155"/>
					<circle fill="#AAD8CB" cx="11.834" cy="218.345" r="1.155"/>
					<circle fill="#AAD8CB" cx="17.085" cy="218.345" r="1.155"/>
					<circle fill="#AAD8CB" cx="22.336" cy="218.345" r="1.155"/>
				</g>
				<g display="inline">
					<circle fill="#AAD8CB" cx="187.741" cy="156.471" r="1.155"/>
					<circle fill="#AAD8CB" cx="192.992" cy="156.471" r="1.155"/>
					<circle fill="#AAD8CB" cx="198.243" cy="156.471" r="1.155"/>
					<circle fill="#AAD8CB" cx="203.494" cy="156.471" r="1.155"/>
					<circle fill="#AAD8CB" cx="208.745" cy="156.471" r="1.155"/>
					<circle fill="#AAD8CB" cx="161.487" cy="156.471" r="1.155"/>
					<circle fill="#AAD8CB" cx="166.738" cy="156.471" r="1.155"/>
					<circle fill="#AAD8CB" cx="171.989" cy="156.471" r="1.155"/>
					<circle fill="#AAD8CB" cx="177.24" cy="156.471" r="1.155"/>
					<circle fill="#AAD8CB" cx="182.491" cy="156.471" r="1.155"/>
					<circle fill="#AAD8CB" cx="135.232" cy="156.471" r="1.155"/>
					<circle fill="#AAD8CB" cx="140.483" cy="156.471" r="1.155"/>
					<circle fill="#AAD8CB" cx="145.734" cy="156.471" r="1.155"/>
					<circle fill="#AAD8CB" cx="150.985" cy="156.471" r="1.155"/>
					<circle fill="#AAD8CB" cx="156.236" cy="156.471" r="1.155"/>
					<circle fill="#AAD8CB" cx="108.977" cy="156.471" r="1.155"/>
					<circle fill="#AAD8CB" cx="114.228" cy="156.471" r="1.155"/>
					<circle fill="#AAD8CB" cx="119.479" cy="156.471" r="1.155"/>
					<circle fill="#AAD8CB" cx="124.73" cy="156.471" r="1.155"/>
					<circle fill="#AAD8CB" cx="129.981" cy="156.471" r="1.155"/>
					<circle fill="#AAD8CB" cx="82.722" cy="156.471" r="1.155"/>
					<circle fill="#AAD8CB" cx="87.973" cy="156.471" r="1.155"/>
					<circle fill="#AAD8CB" cx="93.224" cy="156.471" r="1.155"/>
					<circle fill="#AAD8CB" cx="98.475" cy="156.471" r="1.155"/>
					<circle fill="#AAD8CB" cx="103.726" cy="156.471" r="1.155"/>
					<circle fill="#AAD8CB" cx="56.467" cy="156.471" r="1.155"/>
					<circle fill="#AAD8CB" cx="61.718" cy="156.471" r="1.155"/>
					<circle fill="#AAD8CB" cx="66.969" cy="156.471" r="1.155"/>
					<circle fill="#AAD8CB" cx="72.22" cy="156.471" r="1.155"/>
					<circle fill="#AAD8CB" cx="77.471" cy="156.471" r="1.155"/>
					<circle fill="#AAD8CB" cx="30.213" cy="156.471" r="1.155"/>
					<circle fill="#AAD8CB" cx="35.464" cy="156.471" r="1.155"/>
					<circle fill="#AAD8CB" cx="40.715" cy="156.471" r="1.155"/>
					<circle fill="#AAD8CB" cx="45.966" cy="156.471" r="1.155"/>
					<circle fill="#AAD8CB" cx="51.216" cy="156.471" r="1.155"/>
					<circle fill="#AAD8CB" cx="3.958" cy="156.471" r="1.155"/>
					<circle fill="#AAD8CB" cx="9.209" cy="156.471" r="1.155"/>
					<circle fill="#AAD8CB" cx="14.46" cy="156.471" r="1.155"/>
					<circle fill="#AAD8CB" cx="19.711" cy="156.471" r="1.155"/>
					<circle fill="#AAD8CB" cx="24.962" cy="156.471" r="1.155"/>
				</g>
				<g display="inline">
					<circle fill="#AAD8CB" cx="185.116" cy="151.776" r="1.155"/>
					<circle fill="#AAD8CB" cx="190.367" cy="151.776" r="1.155"/>
					<circle fill="#AAD8CB" cx="195.618" cy="151.776" r="1.155"/>
					<circle fill="#AAD8CB" cx="200.869" cy="151.776" r="1.155"/>
					<circle fill="#AAD8CB" cx="206.12" cy="151.776" r="1.155"/>
					<circle fill="#AAD8CB" cx="158.861" cy="151.776" r="1.155"/>
					<circle fill="#AAD8CB" cx="164.112" cy="151.776" r="1.155"/>
					<circle fill="#AAD8CB" cx="169.363" cy="151.776" r="1.155"/>
					<circle fill="#AAD8CB" cx="174.614" cy="151.776" r="1.155"/>
					<circle fill="#AAD8CB" cx="179.865" cy="151.776" r="1.155"/>
					<circle fill="#AAD8CB" cx="132.606" cy="151.776" r="1.155"/>
					<circle fill="#AAD8CB" cx="137.857" cy="151.776" r="1.155"/>
					<circle fill="#AAD8CB" cx="143.108" cy="151.776" r="1.155"/>
					<circle fill="#AAD8CB" cx="148.359" cy="151.776" r="1.155"/>
					<circle fill="#AAD8CB" cx="153.61" cy="151.776" r="1.155"/>
					<circle fill="#AAD8CB" cx="106.352" cy="151.776" r="1.155"/>
					<circle fill="#AAD8CB" cx="111.603" cy="151.776" r="1.155"/>
					<circle fill="#AAD8CB" cx="116.854" cy="151.776" r="1.155"/>
					<circle fill="#AAD8CB" cx="122.104" cy="151.776" r="1.155"/>
					<circle fill="#AAD8CB" cx="127.355" cy="151.776" r="1.155"/>
					<circle fill="#AAD8CB" cx="80.097" cy="151.776" r="1.155"/>
					<circle fill="#AAD8CB" cx="85.348" cy="151.776" r="1.155"/>
					<circle fill="#AAD8CB" cx="90.599" cy="151.776" r="1.155"/>
					<circle fill="#AAD8CB" cx="95.85" cy="151.776" r="1.155"/>
					<circle fill="#AAD8CB" cx="101.101" cy="151.776" r="1.155"/>
					<circle fill="#AAD8CB" cx="53.842" cy="151.776" r="1.155"/>
					<circle fill="#AAD8CB" cx="59.093" cy="151.776" r="1.155"/>
					<circle fill="#AAD8CB" cx="64.344" cy="151.776" r="1.155"/>
					<circle fill="#AAD8CB" cx="69.595" cy="151.776" r="1.155"/>
					<circle fill="#AAD8CB" cx="74.846" cy="151.776" r="1.155"/>
					<circle fill="#AAD8CB" cx="27.587" cy="151.776" r="1.155"/>
					<circle fill="#AAD8CB" cx="32.838" cy="151.776" r="1.155"/>
					<circle fill="#AAD8CB" cx="38.089" cy="151.776" r="1.155"/>
					<circle fill="#AAD8CB" cx="43.34" cy="151.776" r="1.155"/>
					<circle fill="#AAD8CB" cx="48.591" cy="151.776" r="1.155"/>
					<circle fill="#AAD8CB" cx="1.332" cy="151.776" r="1.155"/>
					<circle fill="#AAD8CB" cx="6.583" cy="151.776" r="1.155"/>
					<circle fill="#AAD8CB" cx="11.834" cy="151.776" r="1.155"/>
					<circle fill="#AAD8CB" cx="17.085" cy="151.776" r="1.155"/>
					<circle fill="#AAD8CB" cx="22.336" cy="151.776" r="1.155"/>
				</g>
				<g display="inline">
					<circle fill="#AAD8CB" cx="187.741" cy="166.146" r="1.155"/>
					<circle fill="#AAD8CB" cx="192.992" cy="166.146" r="1.155"/>
					<circle fill="#AAD8CB" cx="198.243" cy="166.146" r="1.155"/>
					<circle fill="#AAD8CB" cx="203.494" cy="166.146" r="1.155"/>
					<circle fill="#AAD8CB" cx="208.745" cy="166.146" r="1.155"/>
					<circle fill="#AAD8CB" cx="161.487" cy="166.146" r="1.155"/>
					<circle fill="#AAD8CB" cx="166.738" cy="166.146" r="1.155"/>
					<circle fill="#AAD8CB" cx="171.989" cy="166.146" r="1.155"/>
					<circle fill="#AAD8CB" cx="177.24" cy="166.146" r="1.155"/>
					<circle fill="#AAD8CB" cx="182.491" cy="166.146" r="1.155"/>
					<circle fill="#AAD8CB" cx="135.232" cy="166.146" r="1.155"/>
					<circle fill="#AAD8CB" cx="140.483" cy="166.146" r="1.155"/>
					<circle fill="#AAD8CB" cx="145.734" cy="166.146" r="1.155"/>
					<circle fill="#AAD8CB" cx="150.985" cy="166.146" r="1.155"/>
					<circle fill="#AAD8CB" cx="156.236" cy="166.146" r="1.155"/>
					<circle fill="#AAD8CB" cx="108.977" cy="166.146" r="1.155"/>
					<circle fill="#AAD8CB" cx="114.228" cy="166.146" r="1.155"/>
					<circle fill="#AAD8CB" cx="119.479" cy="166.146" r="1.155"/>
					<circle fill="#AAD8CB" cx="124.73" cy="166.146" r="1.155"/>
					<circle fill="#AAD8CB" cx="129.981" cy="166.146" r="1.155"/>
					<circle fill="#AAD8CB" cx="82.722" cy="166.146" r="1.155"/>
					<circle fill="#AAD8CB" cx="87.973" cy="166.146" r="1.155"/>
					<circle fill="#AAD8CB" cx="93.224" cy="166.146" r="1.155"/>
					<circle fill="#AAD8CB" cx="98.475" cy="166.146" r="1.155"/>
					<circle fill="#AAD8CB" cx="103.726" cy="166.146" r="1.155"/>
					<circle fill="#AAD8CB" cx="56.467" cy="166.146" r="1.155"/>
					<circle fill="#AAD8CB" cx="61.718" cy="166.146" r="1.155"/>
					<circle fill="#AAD8CB" cx="66.969" cy="166.146" r="1.155"/>
					<circle fill="#AAD8CB" cx="72.22" cy="166.146" r="1.155"/>
					<circle fill="#AAD8CB" cx="77.471" cy="166.146" r="1.155"/>
					<circle fill="#AAD8CB" cx="30.213" cy="166.146" r="1.155"/>
					<circle fill="#AAD8CB" cx="35.464" cy="166.146" r="1.155"/>
					<circle fill="#AAD8CB" cx="40.715" cy="166.146" r="1.155"/>
					<circle fill="#AAD8CB" cx="45.966" cy="166.146" r="1.155"/>
					<circle fill="#AAD8CB" cx="51.216" cy="166.146" r="1.155"/>
					<circle fill="#AAD8CB" cx="3.958" cy="166.146" r="1.155"/>
					<circle fill="#AAD8CB" cx="9.209" cy="166.146" r="1.155"/>
					<circle fill="#AAD8CB" cx="14.46" cy="166.146" r="1.155"/>
					<circle fill="#AAD8CB" cx="19.711" cy="166.146" r="1.155"/>
					<circle fill="#AAD8CB" cx="24.962" cy="166.146" r="1.155"/>
				</g>
				<g display="inline">
					<circle fill="#AAD8CB" cx="185.116" cy="161.451" r="1.155"/>
					<circle fill="#AAD8CB" cx="190.367" cy="161.451" r="1.155"/>
					<circle fill="#AAD8CB" cx="195.618" cy="161.451" r="1.155"/>
					<circle fill="#AAD8CB" cx="200.869" cy="161.451" r="1.155"/>
					<circle fill="#AAD8CB" cx="206.12" cy="161.451" r="1.155"/>
					<circle fill="#AAD8CB" cx="158.861" cy="161.451" r="1.155"/>
					<circle fill="#AAD8CB" cx="164.112" cy="161.451" r="1.155"/>
					<circle fill="#AAD8CB" cx="169.363" cy="161.451" r="1.155"/>
					<circle fill="#AAD8CB" cx="174.614" cy="161.451" r="1.155"/>
					<circle fill="#AAD8CB" cx="179.865" cy="161.451" r="1.155"/>
					<circle fill="#AAD8CB" cx="132.606" cy="161.451" r="1.155"/>
					<circle fill="#AAD8CB" cx="137.857" cy="161.451" r="1.155"/>
					<circle fill="#AAD8CB" cx="143.108" cy="161.451" r="1.155"/>
					<circle fill="#AAD8CB" cx="148.359" cy="161.451" r="1.155"/>
					<circle fill="#AAD8CB" cx="153.61" cy="161.451" r="1.155"/>
					<circle fill="#AAD8CB" cx="106.352" cy="161.451" r="1.155"/>
					<circle fill="#AAD8CB" cx="111.603" cy="161.451" r="1.155"/>
					<circle fill="#AAD8CB" cx="116.854" cy="161.451" r="1.155"/>
					<circle fill="#AAD8CB" cx="122.104" cy="161.451" r="1.155"/>
					<circle fill="#AAD8CB" cx="127.355" cy="161.451" r="1.155"/>
					<circle fill="#AAD8CB" cx="80.097" cy="161.451" r="1.155"/>
					<circle fill="#AAD8CB" cx="85.348" cy="161.451" r="1.155"/>
					<circle fill="#AAD8CB" cx="90.599" cy="161.451" r="1.155"/>
					<circle fill="#AAD8CB" cx="95.85" cy="161.451" r="1.155"/>
					<circle fill="#AAD8CB" cx="101.101" cy="161.451" r="1.155"/>
					<circle fill="#AAD8CB" cx="53.842" cy="161.451" r="1.155"/>
					<circle fill="#AAD8CB" cx="59.093" cy="161.451" r="1.155"/>
					<circle fill="#AAD8CB" cx="64.344" cy="161.451" r="1.155"/>
					<circle fill="#AAD8CB" cx="69.595" cy="161.451" r="1.155"/>
					<circle fill="#AAD8CB" cx="74.846" cy="161.451" r="1.155"/>
					<circle fill="#AAD8CB" cx="27.587" cy="161.451" r="1.155"/>
					<circle fill="#AAD8CB" cx="32.838" cy="161.451" r="1.155"/>
					<circle fill="#AAD8CB" cx="38.089" cy="161.451" r="1.155"/>
					<circle fill="#AAD8CB" cx="43.34" cy="161.451" r="1.155"/>
					<circle fill="#AAD8CB" cx="48.591" cy="161.451" r="1.155"/>
					<circle fill="#AAD8CB" cx="1.332" cy="161.451" r="1.155"/>
					<circle fill="#AAD8CB" cx="6.583" cy="161.451" r="1.155"/>
					<circle fill="#AAD8CB" cx="11.834" cy="161.451" r="1.155"/>
					<circle fill="#AAD8CB" cx="17.085" cy="161.451" r="1.155"/>
					<circle fill="#AAD8CB" cx="22.336" cy="161.451" r="1.155"/>
				</g>
				<g display="inline">
					<circle fill="#AAD8CB" cx="187.741" cy="175.596" r="1.155"/>
					<circle fill="#AAD8CB" cx="192.992" cy="175.596" r="1.155"/>
					<circle fill="#AAD8CB" cx="198.243" cy="175.596" r="1.155"/>
					<circle fill="#AAD8CB" cx="203.494" cy="175.596" r="1.155"/>
					<circle fill="#AAD8CB" cx="208.745" cy="175.596" r="1.155"/>
					<circle fill="#AAD8CB" cx="161.487" cy="175.596" r="1.155"/>
					<circle fill="#AAD8CB" cx="166.738" cy="175.596" r="1.155"/>
					<circle fill="#AAD8CB" cx="171.989" cy="175.596" r="1.155"/>
					<circle fill="#AAD8CB" cx="177.24" cy="175.596" r="1.155"/>
					<circle fill="#AAD8CB" cx="182.491" cy="175.596" r="1.155"/>
					<circle fill="#AAD8CB" cx="135.232" cy="175.596" r="1.155"/>
					<circle fill="#AAD8CB" cx="140.483" cy="175.596" r="1.155"/>
					<circle fill="#AAD8CB" cx="145.734" cy="175.596" r="1.155"/>
					<circle fill="#AAD8CB" cx="150.985" cy="175.596" r="1.155"/>
					<circle fill="#AAD8CB" cx="156.236" cy="175.596" r="1.155"/>
					<circle fill="#AAD8CB" cx="108.977" cy="175.596" r="1.155"/>
					<circle fill="#AAD8CB" cx="114.228" cy="175.596" r="1.155"/>
					<circle fill="#AAD8CB" cx="119.479" cy="175.596" r="1.155"/>
					<circle fill="#AAD8CB" cx="124.73" cy="175.596" r="1.155"/>
					<circle fill="#AAD8CB" cx="129.981" cy="175.596" r="1.155"/>
					<circle fill="#AAD8CB" cx="82.722" cy="175.596" r="1.155"/>
					<circle fill="#AAD8CB" cx="87.973" cy="175.596" r="1.155"/>
					<circle fill="#AAD8CB" cx="93.224" cy="175.596" r="1.155"/>
					<circle fill="#AAD8CB" cx="98.475" cy="175.596" r="1.155"/>
					<circle fill="#AAD8CB" cx="103.726" cy="175.596" r="1.155"/>
					<circle fill="#AAD8CB" cx="56.467" cy="175.596" r="1.155"/>
					<circle fill="#AAD8CB" cx="61.718" cy="175.596" r="1.155"/>
					<circle fill="#AAD8CB" cx="66.969" cy="175.596" r="1.155"/>
					<circle fill="#AAD8CB" cx="72.22" cy="175.596" r="1.155"/>
					<circle fill="#AAD8CB" cx="77.471" cy="175.596" r="1.155"/>
					<circle fill="#AAD8CB" cx="30.213" cy="175.596" r="1.155"/>
					<circle fill="#AAD8CB" cx="35.464" cy="175.596" r="1.155"/>
					<circle fill="#AAD8CB" cx="40.715" cy="175.596" r="1.155"/>
					<circle fill="#AAD8CB" cx="45.966" cy="175.596" r="1.155"/>
					<circle fill="#AAD8CB" cx="51.216" cy="175.596" r="1.155"/>
					<circle fill="#AAD8CB" cx="3.958" cy="175.596" r="1.155"/>
					<circle fill="#AAD8CB" cx="9.209" cy="175.596" r="1.155"/>
					<circle fill="#AAD8CB" cx="14.46" cy="175.596" r="1.155"/>
					<circle fill="#AAD8CB" cx="19.711" cy="175.596" r="1.155"/>
					<circle fill="#AAD8CB" cx="24.962" cy="175.596" r="1.155"/>
				</g>
				<g display="inline">
					<circle fill="#AAD8CB" cx="185.116" cy="170.901" r="1.155"/>
					<circle fill="#AAD8CB" cx="190.367" cy="170.901" r="1.155"/>
					<circle fill="#AAD8CB" cx="195.618" cy="170.901" r="1.155"/>
					<circle fill="#AAD8CB" cx="200.869" cy="170.901" r="1.155"/>
					<circle fill="#AAD8CB" cx="206.12" cy="170.901" r="1.155"/>
					<circle fill="#AAD8CB" cx="158.861" cy="170.901" r="1.155"/>
					<circle fill="#AAD8CB" cx="164.112" cy="170.901" r="1.155"/>
					<circle fill="#AAD8CB" cx="169.363" cy="170.901" r="1.155"/>
					<circle fill="#AAD8CB" cx="174.614" cy="170.901" r="1.155"/>
					<circle fill="#AAD8CB" cx="179.865" cy="170.901" r="1.155"/>
					<circle fill="#AAD8CB" cx="132.606" cy="170.901" r="1.155"/>
					<circle fill="#AAD8CB" cx="137.857" cy="170.901" r="1.155"/>
					<circle fill="#AAD8CB" cx="143.108" cy="170.901" r="1.155"/>
					<circle fill="#AAD8CB" cx="148.359" cy="170.901" r="1.155"/>
					<circle fill="#AAD8CB" cx="153.61" cy="170.901" r="1.155"/>
					<circle fill="#AAD8CB" cx="106.352" cy="170.901" r="1.155"/>
					<circle fill="#AAD8CB" cx="111.603" cy="170.901" r="1.155"/>
					<circle fill="#AAD8CB" cx="116.854" cy="170.901" r="1.155"/>
					<circle fill="#AAD8CB" cx="122.104" cy="170.901" r="1.155"/>
					<circle fill="#AAD8CB" cx="127.355" cy="170.901" r="1.155"/>
					<circle fill="#AAD8CB" cx="80.097" cy="170.901" r="1.155"/>
					<circle fill="#AAD8CB" cx="85.348" cy="170.901" r="1.155"/>
					<circle fill="#AAD8CB" cx="90.599" cy="170.901" r="1.155"/>
					<circle fill="#AAD8CB" cx="95.85" cy="170.901" r="1.155"/>
					<circle fill="#AAD8CB" cx="101.101" cy="170.901" r="1.155"/>
					<circle fill="#AAD8CB" cx="53.842" cy="170.901" r="1.155"/>
					<circle fill="#AAD8CB" cx="59.093" cy="170.901" r="1.155"/>
					<circle fill="#AAD8CB" cx="64.344" cy="170.901" r="1.155"/>
					<circle fill="#AAD8CB" cx="69.595" cy="170.901" r="1.155"/>
					<circle fill="#AAD8CB" cx="74.846" cy="170.901" r="1.155"/>
					<circle fill="#AAD8CB" cx="27.587" cy="170.901" r="1.155"/>
					<circle fill="#AAD8CB" cx="32.838" cy="170.901" r="1.155"/>
					<circle fill="#AAD8CB" cx="38.089" cy="170.901" r="1.155"/>
					<circle fill="#AAD8CB" cx="43.34" cy="170.901" r="1.155"/>
					<circle fill="#AAD8CB" cx="48.591" cy="170.901" r="1.155"/>
					<circle fill="#AAD8CB" cx="1.332" cy="170.901" r="1.155"/>
					<circle fill="#AAD8CB" cx="6.583" cy="170.901" r="1.155"/>
					<circle fill="#AAD8CB" cx="11.834" cy="170.901" r="1.155"/>
					<circle fill="#AAD8CB" cx="17.085" cy="170.901" r="1.155"/>
					<circle fill="#AAD8CB" cx="22.336" cy="170.901" r="1.155"/>
				</g>
				<g display="inline">
					<circle fill="#AAD8CB" cx="187.741" cy="185.045" r="1.155"/>
					<circle fill="#AAD8CB" cx="192.992" cy="185.045" r="1.155"/>
					<circle fill="#AAD8CB" cx="198.243" cy="185.045" r="1.155"/>
					<circle fill="#AAD8CB" cx="203.494" cy="185.045" r="1.155"/>
					<circle fill="#AAD8CB" cx="208.745" cy="185.045" r="1.155"/>
					<circle fill="#AAD8CB" cx="161.487" cy="185.045" r="1.155"/>
					<circle fill="#AAD8CB" cx="166.738" cy="185.045" r="1.155"/>
					<circle fill="#AAD8CB" cx="171.989" cy="185.045" r="1.155"/>
					<circle fill="#AAD8CB" cx="177.24" cy="185.045" r="1.155"/>
					<circle fill="#AAD8CB" cx="182.491" cy="185.045" r="1.155"/>
					<circle fill="#AAD8CB" cx="135.232" cy="185.045" r="1.155"/>
					<circle fill="#AAD8CB" cx="140.483" cy="185.045" r="1.155"/>
					<circle fill="#AAD8CB" cx="145.734" cy="185.045" r="1.155"/>
					<circle fill="#AAD8CB" cx="150.985" cy="185.045" r="1.155"/>
					<circle fill="#AAD8CB" cx="156.236" cy="185.045" r="1.155"/>
					<circle fill="#AAD8CB" cx="108.977" cy="185.045" r="1.155"/>
					<circle fill="#AAD8CB" cx="114.228" cy="185.045" r="1.155"/>
					<circle fill="#AAD8CB" cx="119.479" cy="185.045" r="1.155"/>
					<circle fill="#AAD8CB" cx="124.73" cy="185.045" r="1.155"/>
					<circle fill="#AAD8CB" cx="129.981" cy="185.045" r="1.155"/>
					<circle fill="#AAD8CB" cx="82.722" cy="185.045" r="1.155"/>
					<circle fill="#AAD8CB" cx="87.973" cy="185.045" r="1.155"/>
					<circle fill="#AAD8CB" cx="93.224" cy="185.045" r="1.155"/>
					<circle fill="#AAD8CB" cx="98.475" cy="185.045" r="1.155"/>
					<circle fill="#AAD8CB" cx="103.726" cy="185.045" r="1.155"/>
					<circle fill="#AAD8CB" cx="56.467" cy="185.045" r="1.155"/>
					<circle fill="#AAD8CB" cx="61.718" cy="185.045" r="1.155"/>
					<circle fill="#AAD8CB" cx="66.969" cy="185.045" r="1.155"/>
					<circle fill="#AAD8CB" cx="72.22" cy="185.045" r="1.155"/>
					<circle fill="#AAD8CB" cx="77.471" cy="185.045" r="1.155"/>
					<circle fill="#AAD8CB" cx="30.213" cy="185.045" r="1.155"/>
					<circle fill="#AAD8CB" cx="35.464" cy="185.045" r="1.155"/>
					<circle fill="#AAD8CB" cx="40.715" cy="185.045" r="1.155"/>
					<circle fill="#AAD8CB" cx="45.966" cy="185.045" r="1.155"/>
					<circle fill="#AAD8CB" cx="51.216" cy="185.045" r="1.155"/>
					<circle fill="#AAD8CB" cx="3.958" cy="185.045" r="1.155"/>
					<circle fill="#AAD8CB" cx="9.209" cy="185.045" r="1.155"/>
					<circle fill="#AAD8CB" cx="14.46" cy="185.045" r="1.155"/>
					<circle fill="#AAD8CB" cx="19.711" cy="185.045" r="1.155"/>
					<circle fill="#AAD8CB" cx="24.962" cy="185.045" r="1.155"/>
				</g>
				<g display="inline">
					<circle fill="#AAD8CB" cx="185.116" cy="180.351" r="1.155"/>
					<circle fill="#AAD8CB" cx="190.367" cy="180.351" r="1.155"/>
					<circle fill="#AAD8CB" cx="195.618" cy="180.351" r="1.155"/>
					<circle fill="#AAD8CB" cx="200.869" cy="180.351" r="1.155"/>
					<circle fill="#AAD8CB" cx="206.12" cy="180.351" r="1.155"/>
					<circle fill="#AAD8CB" cx="158.861" cy="180.351" r="1.155"/>
					<circle fill="#AAD8CB" cx="164.112" cy="180.351" r="1.155"/>
					<circle fill="#AAD8CB" cx="169.363" cy="180.351" r="1.155"/>
					<circle fill="#AAD8CB" cx="174.614" cy="180.351" r="1.155"/>
					<circle fill="#AAD8CB" cx="179.865" cy="180.351" r="1.155"/>
					<circle fill="#AAD8CB" cx="132.606" cy="180.351" r="1.155"/>
					<circle fill="#AAD8CB" cx="137.857" cy="180.351" r="1.155"/>
					<circle fill="#AAD8CB" cx="143.108" cy="180.351" r="1.155"/>
					<circle fill="#AAD8CB" cx="148.359" cy="180.351" r="1.155"/>
					<circle fill="#AAD8CB" cx="153.61" cy="180.351" r="1.155"/>
					<circle fill="#AAD8CB" cx="106.352" cy="180.351" r="1.155"/>
					<circle fill="#AAD8CB" cx="111.603" cy="180.351" r="1.155"/>
					<circle fill="#AAD8CB" cx="116.854" cy="180.351" r="1.155"/>
					<circle fill="#AAD8CB" cx="122.104" cy="180.351" r="1.155"/>
					<circle fill="#AAD8CB" cx="127.355" cy="180.351" r="1.155"/>
					<circle fill="#AAD8CB" cx="80.097" cy="180.351" r="1.155"/>
					<circle fill="#AAD8CB" cx="85.348" cy="180.351" r="1.155"/>
					<circle fill="#AAD8CB" cx="90.599" cy="180.351" r="1.155"/>
					<circle fill="#AAD8CB" cx="95.85" cy="180.351" r="1.155"/>
					<circle fill="#AAD8CB" cx="101.101" cy="180.351" r="1.155"/>
					<circle fill="#AAD8CB" cx="53.842" cy="180.351" r="1.155"/>
					<circle fill="#AAD8CB" cx="59.093" cy="180.351" r="1.155"/>
					<circle fill="#AAD8CB" cx="64.344" cy="180.351" r="1.155"/>
					<circle fill="#AAD8CB" cx="69.595" cy="180.351" r="1.155"/>
					<circle fill="#AAD8CB" cx="74.846" cy="180.351" r="1.155"/>
					<circle fill="#AAD8CB" cx="27.587" cy="180.351" r="1.155"/>
					<circle fill="#AAD8CB" cx="32.838" cy="180.351" r="1.155"/>
					<circle fill="#AAD8CB" cx="38.089" cy="180.351" r="1.155"/>
					<circle fill="#AAD8CB" cx="43.34" cy="180.351" r="1.155"/>
					<circle fill="#AAD8CB" cx="48.591" cy="180.351" r="1.155"/>
					<circle fill="#AAD8CB" cx="1.332" cy="180.351" r="1.155"/>
					<circle fill="#AAD8CB" cx="6.583" cy="180.351" r="1.155"/>
					<circle fill="#AAD8CB" cx="11.834" cy="180.351" r="1.155"/>
					<circle fill="#AAD8CB" cx="17.085" cy="180.351" r="1.155"/>
					<circle fill="#AAD8CB" cx="22.336" cy="180.351" r="1.155"/>
				</g>
				<g display="inline">
					<circle fill="#AAD8CB" cx="187.741" cy="118.672" r="1.155"/>
					<circle fill="#AAD8CB" cx="192.992" cy="118.672" r="1.155"/>
					<circle fill="#AAD8CB" cx="198.243" cy="118.672" r="1.155"/>
					<circle fill="#AAD8CB" cx="203.494" cy="118.672" r="1.155"/>
					<circle fill="#AAD8CB" cx="208.745" cy="118.672" r="1.155"/>
					<circle fill="#AAD8CB" cx="161.487" cy="118.672" r="1.155"/>
					<circle fill="#AAD8CB" cx="166.738" cy="118.672" r="1.155"/>
					<circle fill="#AAD8CB" cx="171.989" cy="118.672" r="1.155"/>
					<circle fill="#AAD8CB" cx="177.24" cy="118.672" r="1.155"/>
					<circle fill="#AAD8CB" cx="182.491" cy="118.672" r="1.155"/>
					<circle fill="#AAD8CB" cx="135.232" cy="118.672" r="1.155"/>
					<circle fill="#AAD8CB" cx="140.483" cy="118.672" r="1.155"/>
					<circle fill="#AAD8CB" cx="145.734" cy="118.672" r="1.155"/>
					<circle fill="#AAD8CB" cx="150.985" cy="118.672" r="1.155"/>
					<circle fill="#AAD8CB" cx="156.236" cy="118.672" r="1.155"/>
					<circle fill="#AAD8CB" cx="108.977" cy="118.672" r="1.155"/>
					<circle fill="#AAD8CB" cx="114.228" cy="118.672" r="1.155"/>
					<circle fill="#AAD8CB" cx="119.479" cy="118.672" r="1.155"/>
					<circle fill="#AAD8CB" cx="124.73" cy="118.672" r="1.155"/>
					<circle fill="#AAD8CB" cx="129.981" cy="118.672" r="1.155"/>
					<circle fill="#AAD8CB" cx="82.722" cy="118.672" r="1.155"/>
					<circle fill="#AAD8CB" cx="87.973" cy="118.672" r="1.155"/>
					<circle fill="#AAD8CB" cx="93.224" cy="118.672" r="1.155"/>
					<circle fill="#AAD8CB" cx="98.475" cy="118.672" r="1.155"/>
					<circle fill="#AAD8CB" cx="103.726" cy="118.672" r="1.155"/>
					<circle fill="#AAD8CB" cx="56.467" cy="118.672" r="1.155"/>
					<circle fill="#AAD8CB" cx="61.718" cy="118.672" r="1.155"/>
					<circle fill="#AAD8CB" cx="66.969" cy="118.672" r="1.155"/>
					<circle fill="#AAD8CB" cx="72.22" cy="118.672" r="1.155"/>
					<circle fill="#AAD8CB" cx="77.471" cy="118.672" r="1.155"/>
					<circle fill="#AAD8CB" cx="30.213" cy="118.672" r="1.155"/>
					<circle fill="#AAD8CB" cx="35.464" cy="118.672" r="1.155"/>
					<circle fill="#AAD8CB" cx="40.715" cy="118.672" r="1.155"/>
					<circle fill="#AAD8CB" cx="45.966" cy="118.672" r="1.155"/>
					<circle fill="#AAD8CB" cx="51.216" cy="118.672" r="1.155"/>
					<circle fill="#AAD8CB" cx="3.958" cy="118.672" r="1.155"/>
					<circle fill="#AAD8CB" cx="9.209" cy="118.672" r="1.155"/>
					<circle fill="#AAD8CB" cx="14.46" cy="118.672" r="1.155"/>
					<circle fill="#AAD8CB" cx="19.711" cy="118.672" r="1.155"/>
					<circle fill="#AAD8CB" cx="24.962" cy="118.672" r="1.155"/>
				</g>
				<g display="inline">
					<circle fill="#AAD8CB" cx="185.116" cy="113.977" r="1.155"/>
					<circle fill="#AAD8CB" cx="190.367" cy="113.977" r="1.155"/>
					<circle fill="#AAD8CB" cx="195.618" cy="113.977" r="1.155"/>
					<circle fill="#AAD8CB" cx="200.869" cy="113.977" r="1.155"/>
					<circle fill="#AAD8CB" cx="206.12" cy="113.977" r="1.155"/>
					<circle fill="#AAD8CB" cx="158.861" cy="113.977" r="1.155"/>
					<circle fill="#AAD8CB" cx="164.112" cy="113.977" r="1.155"/>
					<circle fill="#AAD8CB" cx="169.363" cy="113.977" r="1.155"/>
					<circle fill="#AAD8CB" cx="174.614" cy="113.977" r="1.155"/>
					<circle fill="#AAD8CB" cx="179.865" cy="113.977" r="1.155"/>
					<circle fill="#AAD8CB" cx="132.606" cy="113.977" r="1.155"/>
					<circle fill="#AAD8CB" cx="137.857" cy="113.977" r="1.155"/>
					<circle fill="#AAD8CB" cx="143.108" cy="113.977" r="1.155"/>
					<circle fill="#AAD8CB" cx="148.359" cy="113.977" r="1.155"/>
					<circle fill="#AAD8CB" cx="153.61" cy="113.977" r="1.155"/>
					<circle fill="#AAD8CB" cx="106.352" cy="113.977" r="1.155"/>
					<circle fill="#AAD8CB" cx="111.603" cy="113.977" r="1.155"/>
					<circle fill="#AAD8CB" cx="116.854" cy="113.977" r="1.155"/>
					<circle fill="#AAD8CB" cx="122.104" cy="113.977" r="1.155"/>
					<circle fill="#AAD8CB" cx="127.355" cy="113.977" r="1.155"/>
					<circle fill="#AAD8CB" cx="80.097" cy="113.977" r="1.155"/>
					<circle fill="#AAD8CB" cx="85.348" cy="113.977" r="1.155"/>
					<circle fill="#AAD8CB" cx="90.599" cy="113.977" r="1.155"/>
					<circle fill="#AAD8CB" cx="95.85" cy="113.977" r="1.155"/>
					<circle fill="#AAD8CB" cx="101.101" cy="113.977" r="1.155"/>
					<circle fill="#AAD8CB" cx="53.842" cy="113.977" r="1.155"/>
					<circle fill="#AAD8CB" cx="59.093" cy="113.977" r="1.155"/>
					<circle fill="#AAD8CB" cx="64.344" cy="113.977" r="1.155"/>
					<circle fill="#AAD8CB" cx="69.595" cy="113.977" r="1.155"/>
					<circle fill="#AAD8CB" cx="74.846" cy="113.977" r="1.155"/>
					<circle fill="#AAD8CB" cx="27.587" cy="113.977" r="1.155"/>
					<circle fill="#AAD8CB" cx="32.838" cy="113.977" r="1.155"/>
					<circle fill="#AAD8CB" cx="38.089" cy="113.977" r="1.155"/>
					<circle fill="#AAD8CB" cx="43.34" cy="113.977" r="1.155"/>
					<circle fill="#AAD8CB" cx="48.591" cy="113.977" r="1.155"/>
					<circle fill="#AAD8CB" cx="1.332" cy="113.977" r="1.155"/>
					<circle fill="#AAD8CB" cx="6.583" cy="113.977" r="1.155"/>
					<circle fill="#AAD8CB" cx="11.834" cy="113.977" r="1.155"/>
					<circle fill="#AAD8CB" cx="17.085" cy="113.977" r="1.155"/>
					<circle fill="#AAD8CB" cx="22.336" cy="113.977" r="1.155"/>
				</g>
				<g display="inline">
					<circle fill="#AAD8CB" cx="187.741" cy="128.347" r="1.155"/>
					<circle fill="#AAD8CB" cx="192.992" cy="128.347" r="1.155"/>
					<circle fill="#AAD8CB" cx="198.243" cy="128.347" r="1.155"/>
					<circle fill="#AAD8CB" cx="203.494" cy="128.347" r="1.155"/>
					<circle fill="#AAD8CB" cx="208.745" cy="128.347" r="1.155"/>
					<circle fill="#AAD8CB" cx="161.487" cy="128.347" r="1.155"/>
					<circle fill="#AAD8CB" cx="166.738" cy="128.347" r="1.155"/>
					<circle fill="#AAD8CB" cx="171.989" cy="128.347" r="1.155"/>
					<circle fill="#AAD8CB" cx="177.24" cy="128.347" r="1.155"/>
					<circle fill="#AAD8CB" cx="182.491" cy="128.347" r="1.155"/>
					<circle fill="#AAD8CB" cx="135.232" cy="128.347" r="1.155"/>
					<circle fill="#AAD8CB" cx="140.483" cy="128.347" r="1.155"/>
					<circle fill="#AAD8CB" cx="145.734" cy="128.347" r="1.155"/>
					<circle fill="#AAD8CB" cx="150.985" cy="128.347" r="1.155"/>
					<circle fill="#AAD8CB" cx="156.236" cy="128.347" r="1.155"/>
					<circle fill="#AAD8CB" cx="108.977" cy="128.347" r="1.155"/>
					<circle fill="#AAD8CB" cx="114.228" cy="128.347" r="1.155"/>
					<circle fill="#AAD8CB" cx="119.479" cy="128.347" r="1.155"/>
					<circle fill="#AAD8CB" cx="124.73" cy="128.347" r="1.155"/>
					<circle fill="#AAD8CB" cx="129.981" cy="128.347" r="1.155"/>
					<circle fill="#AAD8CB" cx="82.722" cy="128.347" r="1.155"/>
					<circle fill="#AAD8CB" cx="87.973" cy="128.347" r="1.155"/>
					<circle fill="#AAD8CB" cx="93.224" cy="128.347" r="1.155"/>
					<circle fill="#AAD8CB" cx="98.475" cy="128.347" r="1.155"/>
					<circle fill="#AAD8CB" cx="103.726" cy="128.347" r="1.155"/>
					<circle fill="#AAD8CB" cx="56.467" cy="128.347" r="1.155"/>
					<circle fill="#AAD8CB" cx="61.718" cy="128.347" r="1.155"/>
					<circle fill="#AAD8CB" cx="66.969" cy="128.347" r="1.155"/>
					<circle fill="#AAD8CB" cx="72.22" cy="128.347" r="1.155"/>
					<circle fill="#AAD8CB" cx="77.471" cy="128.347" r="1.155"/>
					<circle fill="#AAD8CB" cx="30.213" cy="128.347" r="1.155"/>
					<circle fill="#AAD8CB" cx="35.464" cy="128.347" r="1.155"/>
					<circle fill="#AAD8CB" cx="40.715" cy="128.347" r="1.155"/>
					<circle fill="#AAD8CB" cx="45.966" cy="128.347" r="1.155"/>
					<circle fill="#AAD8CB" cx="51.216" cy="128.347" r="1.155"/>
					<circle fill="#AAD8CB" cx="3.958" cy="128.347" r="1.155"/>
					<circle fill="#AAD8CB" cx="9.209" cy="128.347" r="1.155"/>
					<circle fill="#AAD8CB" cx="14.46" cy="128.347" r="1.155"/>
					<circle fill="#AAD8CB" cx="19.711" cy="128.347" r="1.155"/>
					<circle fill="#AAD8CB" cx="24.962" cy="128.347" r="1.155"/>
				</g>
				<g display="inline">
					<circle fill="#AAD8CB" cx="185.116" cy="123.652" r="1.155"/>
					<circle fill="#AAD8CB" cx="190.367" cy="123.652" r="1.155"/>
					<circle fill="#AAD8CB" cx="195.618" cy="123.652" r="1.155"/>
					<circle fill="#AAD8CB" cx="200.869" cy="123.652" r="1.155"/>
					<circle fill="#AAD8CB" cx="206.12" cy="123.652" r="1.155"/>
					<circle fill="#AAD8CB" cx="158.861" cy="123.652" r="1.155"/>
					<circle fill="#AAD8CB" cx="164.112" cy="123.652" r="1.155"/>
					<circle fill="#AAD8CB" cx="169.363" cy="123.652" r="1.155"/>
					<circle fill="#AAD8CB" cx="174.614" cy="123.652" r="1.155"/>
					<circle fill="#AAD8CB" cx="179.865" cy="123.652" r="1.155"/>
					<circle fill="#AAD8CB" cx="132.606" cy="123.652" r="1.155"/>
					<circle fill="#AAD8CB" cx="137.857" cy="123.652" r="1.155"/>
					<circle fill="#AAD8CB" cx="143.108" cy="123.652" r="1.155"/>
					<circle fill="#AAD8CB" cx="148.359" cy="123.652" r="1.155"/>
					<circle fill="#AAD8CB" cx="153.61" cy="123.652" r="1.155"/>
					<circle fill="#AAD8CB" cx="106.352" cy="123.652" r="1.155"/>
					<circle fill="#AAD8CB" cx="111.603" cy="123.652" r="1.155"/>
					<circle fill="#AAD8CB" cx="116.854" cy="123.652" r="1.155"/>
					<circle fill="#AAD8CB" cx="122.104" cy="123.652" r="1.155"/>
					<circle fill="#AAD8CB" cx="127.355" cy="123.652" r="1.155"/>
					<circle fill="#AAD8CB" cx="80.097" cy="123.652" r="1.155"/>
					<circle fill="#AAD8CB" cx="85.348" cy="123.652" r="1.155"/>
					<circle fill="#AAD8CB" cx="90.599" cy="123.652" r="1.155"/>
					<circle fill="#AAD8CB" cx="95.85" cy="123.652" r="1.155"/>
					<circle fill="#AAD8CB" cx="101.101" cy="123.652" r="1.155"/>
					<circle fill="#AAD8CB" cx="53.842" cy="123.652" r="1.155"/>
					<circle fill="#AAD8CB" cx="59.093" cy="123.652" r="1.155"/>
					<circle fill="#AAD8CB" cx="64.344" cy="123.652" r="1.155"/>
					<circle fill="#AAD8CB" cx="69.595" cy="123.652" r="1.155"/>
					<circle fill="#AAD8CB" cx="74.846" cy="123.652" r="1.155"/>
					<circle fill="#AAD8CB" cx="27.587" cy="123.652" r="1.155"/>
					<circle fill="#AAD8CB" cx="32.838" cy="123.652" r="1.155"/>
					<circle fill="#AAD8CB" cx="38.089" cy="123.652" r="1.155"/>
					<circle fill="#AAD8CB" cx="43.34" cy="123.652" r="1.155"/>
					<circle fill="#AAD8CB" cx="48.591" cy="123.652" r="1.155"/>
					<circle fill="#AAD8CB" cx="1.332" cy="123.652" r="1.155"/>
					<circle fill="#AAD8CB" cx="6.583" cy="123.652" r="1.155"/>
					<circle fill="#AAD8CB" cx="11.834" cy="123.652" r="1.155"/>
					<circle fill="#AAD8CB" cx="17.085" cy="123.652" r="1.155"/>
					<circle fill="#AAD8CB" cx="22.336" cy="123.652" r="1.155"/>
				</g>
				<g display="inline">
					<circle fill="#AAD8CB" cx="187.741" cy="137.797" r="1.155"/>
					<circle fill="#AAD8CB" cx="192.992" cy="137.797" r="1.155"/>
					<circle fill="#AAD8CB" cx="198.243" cy="137.797" r="1.155"/>
					<circle fill="#AAD8CB" cx="203.494" cy="137.797" r="1.155"/>
					<circle fill="#AAD8CB" cx="208.745" cy="137.797" r="1.155"/>
					<circle fill="#AAD8CB" cx="161.487" cy="137.797" r="1.155"/>
					<circle fill="#AAD8CB" cx="166.738" cy="137.797" r="1.155"/>
					<circle fill="#AAD8CB" cx="171.989" cy="137.797" r="1.155"/>
					<circle fill="#AAD8CB" cx="177.24" cy="137.797" r="1.155"/>
					<circle fill="#AAD8CB" cx="182.491" cy="137.797" r="1.155"/>
					<circle fill="#AAD8CB" cx="135.232" cy="137.797" r="1.155"/>
					<circle fill="#AAD8CB" cx="140.483" cy="137.797" r="1.155"/>
					<circle fill="#AAD8CB" cx="145.734" cy="137.797" r="1.155"/>
					<circle fill="#AAD8CB" cx="150.985" cy="137.797" r="1.155"/>
					<circle fill="#AAD8CB" cx="156.236" cy="137.797" r="1.155"/>
					<circle fill="#AAD8CB" cx="108.977" cy="137.797" r="1.155"/>
					<circle fill="#AAD8CB" cx="114.228" cy="137.797" r="1.155"/>
					<circle fill="#AAD8CB" cx="119.479" cy="137.797" r="1.155"/>
					<circle fill="#AAD8CB" cx="124.73" cy="137.797" r="1.155"/>
					<circle fill="#AAD8CB" cx="129.981" cy="137.797" r="1.155"/>
					<circle fill="#AAD8CB" cx="82.722" cy="137.797" r="1.155"/>
					<circle fill="#AAD8CB" cx="87.973" cy="137.797" r="1.155"/>
					<circle fill="#AAD8CB" cx="93.224" cy="137.797" r="1.155"/>
					<circle fill="#AAD8CB" cx="98.475" cy="137.797" r="1.155"/>
					<circle fill="#AAD8CB" cx="103.726" cy="137.797" r="1.155"/>
					<circle fill="#AAD8CB" cx="56.467" cy="137.797" r="1.155"/>
					<circle fill="#AAD8CB" cx="61.718" cy="137.797" r="1.155"/>
					<circle fill="#AAD8CB" cx="66.969" cy="137.797" r="1.155"/>
					<circle fill="#AAD8CB" cx="72.22" cy="137.797" r="1.155"/>
					<circle fill="#AAD8CB" cx="77.471" cy="137.797" r="1.155"/>
					<circle fill="#AAD8CB" cx="30.213" cy="137.797" r="1.155"/>
					<circle fill="#AAD8CB" cx="35.464" cy="137.797" r="1.155"/>
					<circle fill="#AAD8CB" cx="40.715" cy="137.797" r="1.155"/>
					<circle fill="#AAD8CB" cx="45.966" cy="137.797" r="1.155"/>
					<circle fill="#AAD8CB" cx="51.216" cy="137.797" r="1.155"/>
					<circle fill="#AAD8CB" cx="3.958" cy="137.797" r="1.155"/>
					<circle fill="#AAD8CB" cx="9.209" cy="137.797" r="1.155"/>
					<circle fill="#AAD8CB" cx="14.46" cy="137.797" r="1.155"/>
					<circle fill="#AAD8CB" cx="19.711" cy="137.797" r="1.155"/>
					<circle fill="#AAD8CB" cx="24.962" cy="137.797" r="1.155"/>
				</g>
				<g display="inline">
					<circle fill="#AAD8CB" cx="185.116" cy="133.102" r="1.155"/>
					<circle fill="#AAD8CB" cx="190.367" cy="133.102" r="1.155"/>
					<circle fill="#AAD8CB" cx="195.618" cy="133.102" r="1.155"/>
					<circle fill="#AAD8CB" cx="200.869" cy="133.102" r="1.155"/>
					<circle fill="#AAD8CB" cx="206.12" cy="133.102" r="1.155"/>
					<circle fill="#AAD8CB" cx="158.861" cy="133.102" r="1.155"/>
					<circle fill="#AAD8CB" cx="164.112" cy="133.102" r="1.155"/>
					<circle fill="#AAD8CB" cx="169.363" cy="133.102" r="1.155"/>
					<circle fill="#AAD8CB" cx="174.614" cy="133.102" r="1.155"/>
					<circle fill="#AAD8CB" cx="179.865" cy="133.102" r="1.155"/>
					<circle fill="#AAD8CB" cx="132.606" cy="133.102" r="1.155"/>
					<circle fill="#AAD8CB" cx="137.857" cy="133.102" r="1.155"/>
					<circle fill="#AAD8CB" cx="143.108" cy="133.102" r="1.155"/>
					<circle fill="#AAD8CB" cx="148.359" cy="133.102" r="1.155"/>
					<circle fill="#AAD8CB" cx="153.61" cy="133.102" r="1.155"/>
					<circle fill="#AAD8CB" cx="106.352" cy="133.102" r="1.155"/>
					<circle fill="#AAD8CB" cx="111.603" cy="133.102" r="1.155"/>
					<circle fill="#AAD8CB" cx="116.854" cy="133.102" r="1.155"/>
					<circle fill="#AAD8CB" cx="122.104" cy="133.102" r="1.155"/>
					<circle fill="#AAD8CB" cx="127.355" cy="133.102" r="1.155"/>
					<circle fill="#AAD8CB" cx="80.097" cy="133.102" r="1.155"/>
					<circle fill="#AAD8CB" cx="85.348" cy="133.102" r="1.155"/>
					<circle fill="#AAD8CB" cx="90.599" cy="133.102" r="1.155"/>
					<circle fill="#AAD8CB" cx="95.85" cy="133.102" r="1.155"/>
					<circle fill="#AAD8CB" cx="101.101" cy="133.102" r="1.155"/>
					<circle fill="#AAD8CB" cx="53.842" cy="133.102" r="1.155"/>
					<circle fill="#AAD8CB" cx="59.093" cy="133.102" r="1.155"/>
					<circle fill="#AAD8CB" cx="64.344" cy="133.102" r="1.155"/>
					<circle fill="#AAD8CB" cx="69.595" cy="133.102" r="1.155"/>
					<circle fill="#AAD8CB" cx="74.846" cy="133.102" r="1.155"/>
					<circle fill="#AAD8CB" cx="27.587" cy="133.102" r="1.155"/>
					<circle fill="#AAD8CB" cx="32.838" cy="133.102" r="1.155"/>
					<circle fill="#AAD8CB" cx="38.089" cy="133.102" r="1.155"/>
					<circle fill="#AAD8CB" cx="43.34" cy="133.102" r="1.155"/>
					<circle fill="#AAD8CB" cx="48.591" cy="133.102" r="1.155"/>
					<circle fill="#AAD8CB" cx="1.332" cy="133.102" r="1.155"/>
					<circle fill="#AAD8CB" cx="6.583" cy="133.102" r="1.155"/>
					<circle fill="#AAD8CB" cx="11.834" cy="133.102" r="1.155"/>
					<circle fill="#AAD8CB" cx="17.085" cy="133.102" r="1.155"/>
					<circle fill="#AAD8CB" cx="22.336" cy="133.102" r="1.155"/>
				</g>
				<g display="inline">
					<circle fill="#AAD8CB" cx="187.741" cy="147.246" r="1.155"/>
					<circle fill="#AAD8CB" cx="192.992" cy="147.246" r="1.155"/>
					<circle fill="#AAD8CB" cx="198.243" cy="147.246" r="1.155"/>
					<circle fill="#AAD8CB" cx="203.494" cy="147.246" r="1.155"/>
					<circle fill="#AAD8CB" cx="208.745" cy="147.246" r="1.155"/>
					<circle fill="#AAD8CB" cx="161.487" cy="147.246" r="1.155"/>
					<circle fill="#AAD8CB" cx="166.738" cy="147.246" r="1.155"/>
					<circle fill="#AAD8CB" cx="171.989" cy="147.246" r="1.155"/>
					<circle fill="#AAD8CB" cx="177.24" cy="147.246" r="1.155"/>
					<circle fill="#AAD8CB" cx="182.491" cy="147.246" r="1.155"/>
					<circle fill="#AAD8CB" cx="135.232" cy="147.246" r="1.155"/>
					<circle fill="#AAD8CB" cx="140.483" cy="147.246" r="1.155"/>
					<circle fill="#AAD8CB" cx="145.734" cy="147.246" r="1.155"/>
					<circle fill="#AAD8CB" cx="150.985" cy="147.246" r="1.155"/>
					<circle fill="#AAD8CB" cx="156.236" cy="147.246" r="1.155"/>
					<circle fill="#AAD8CB" cx="108.977" cy="147.246" r="1.155"/>
					<circle fill="#AAD8CB" cx="114.228" cy="147.246" r="1.155"/>
					<circle fill="#AAD8CB" cx="119.479" cy="147.246" r="1.155"/>
					<circle fill="#AAD8CB" cx="124.73" cy="147.246" r="1.155"/>
					<circle fill="#AAD8CB" cx="129.981" cy="147.246" r="1.155"/>
					<circle fill="#AAD8CB" cx="82.722" cy="147.246" r="1.155"/>
					<circle fill="#AAD8CB" cx="87.973" cy="147.246" r="1.155"/>
					<circle fill="#AAD8CB" cx="93.224" cy="147.246" r="1.155"/>
					<circle fill="#AAD8CB" cx="98.475" cy="147.246" r="1.155"/>
					<circle fill="#AAD8CB" cx="103.726" cy="147.246" r="1.155"/>
					<circle fill="#AAD8CB" cx="56.467" cy="147.246" r="1.155"/>
					<circle fill="#AAD8CB" cx="61.718" cy="147.246" r="1.155"/>
					<circle fill="#AAD8CB" cx="66.969" cy="147.246" r="1.155"/>
					<circle fill="#AAD8CB" cx="72.22" cy="147.246" r="1.155"/>
					<circle fill="#AAD8CB" cx="77.471" cy="147.246" r="1.155"/>
					<circle fill="#AAD8CB" cx="30.213" cy="147.246" r="1.155"/>
					<circle fill="#AAD8CB" cx="35.464" cy="147.246" r="1.155"/>
					<circle fill="#AAD8CB" cx="40.715" cy="147.246" r="1.155"/>
					<circle fill="#AAD8CB" cx="45.966" cy="147.246" r="1.155"/>
					<circle fill="#AAD8CB" cx="51.216" cy="147.246" r="1.155"/>
					<circle fill="#AAD8CB" cx="3.958" cy="147.246" r="1.155"/>
					<circle fill="#AAD8CB" cx="9.209" cy="147.246" r="1.155"/>
					<circle fill="#AAD8CB" cx="14.46" cy="147.246" r="1.155"/>
					<circle fill="#AAD8CB" cx="19.711" cy="147.246" r="1.155"/>
					<circle fill="#AAD8CB" cx="24.962" cy="147.246" r="1.155"/>
				</g>
				<g display="inline">
					<circle fill="#AAD8CB" cx="185.116" cy="142.552" r="1.155"/>
					<circle fill="#AAD8CB" cx="190.367" cy="142.552" r="1.155"/>
					<circle fill="#AAD8CB" cx="195.618" cy="142.552" r="1.155"/>
					<circle fill="#AAD8CB" cx="200.869" cy="142.552" r="1.155"/>
					<circle fill="#AAD8CB" cx="206.12" cy="142.552" r="1.155"/>
					<circle fill="#AAD8CB" cx="158.861" cy="142.552" r="1.155"/>
					<circle fill="#AAD8CB" cx="164.112" cy="142.552" r="1.155"/>
					<circle fill="#AAD8CB" cx="169.363" cy="142.552" r="1.155"/>
					<circle fill="#AAD8CB" cx="174.614" cy="142.552" r="1.155"/>
					<circle fill="#AAD8CB" cx="179.865" cy="142.552" r="1.155"/>
					<circle fill="#AAD8CB" cx="132.606" cy="142.552" r="1.155"/>
					<circle fill="#AAD8CB" cx="137.857" cy="142.552" r="1.155"/>
					<circle fill="#AAD8CB" cx="143.108" cy="142.552" r="1.155"/>
					<circle fill="#AAD8CB" cx="148.359" cy="142.552" r="1.155"/>
					<circle fill="#AAD8CB" cx="153.61" cy="142.552" r="1.155"/>
					<circle fill="#AAD8CB" cx="106.352" cy="142.552" r="1.155"/>
					<circle fill="#AAD8CB" cx="111.603" cy="142.552" r="1.155"/>
					<circle fill="#AAD8CB" cx="116.854" cy="142.552" r="1.155"/>
					<circle fill="#AAD8CB" cx="122.104" cy="142.552" r="1.155"/>
					<circle fill="#AAD8CB" cx="127.355" cy="142.552" r="1.155"/>
					<circle fill="#AAD8CB" cx="80.097" cy="142.552" r="1.155"/>
					<circle fill="#AAD8CB" cx="85.348" cy="142.552" r="1.155"/>
					<circle fill="#AAD8CB" cx="90.599" cy="142.552" r="1.155"/>
					<circle fill="#AAD8CB" cx="95.85" cy="142.552" r="1.155"/>
					<circle fill="#AAD8CB" cx="101.101" cy="142.552" r="1.155"/>
					<circle fill="#AAD8CB" cx="53.842" cy="142.552" r="1.155"/>
					<circle fill="#AAD8CB" cx="59.093" cy="142.552" r="1.155"/>
					<circle fill="#AAD8CB" cx="64.344" cy="142.552" r="1.155"/>
					<circle fill="#AAD8CB" cx="69.595" cy="142.552" r="1.155"/>
					<circle fill="#AAD8CB" cx="74.846" cy="142.552" r="1.155"/>
					<circle fill="#AAD8CB" cx="27.587" cy="142.552" r="1.155"/>
					<circle fill="#AAD8CB" cx="32.838" cy="142.552" r="1.155"/>
					<circle fill="#AAD8CB" cx="38.089" cy="142.552" r="1.155"/>
					<circle fill="#AAD8CB" cx="43.34" cy="142.552" r="1.155"/>
					<circle fill="#AAD8CB" cx="48.591" cy="142.552" r="1.155"/>
					<circle fill="#AAD8CB" cx="1.332" cy="142.552" r="1.155"/>
					<circle fill="#AAD8CB" cx="6.583" cy="142.552" r="1.155"/>
					<circle fill="#AAD8CB" cx="11.834" cy="142.552" r="1.155"/>
					<circle fill="#AAD8CB" cx="17.085" cy="142.552" r="1.155"/>
					<circle fill="#AAD8CB" cx="22.336" cy="142.552" r="1.155"/>
				</g>
				<g display="inline">
					<circle fill="#AAD8CB" cx="187.741" cy="80.678" r="1.155"/>
					<circle fill="#AAD8CB" cx="192.992" cy="80.678" r="1.155"/>
					<circle fill="#AAD8CB" cx="198.243" cy="80.678" r="1.155"/>
					<circle fill="#AAD8CB" cx="203.494" cy="80.678" r="1.155"/>
					<circle fill="#AAD8CB" cx="208.745" cy="80.678" r="1.155"/>
					<circle fill="#AAD8CB" cx="161.487" cy="80.678" r="1.155"/>
					<circle fill="#AAD8CB" cx="166.738" cy="80.678" r="1.155"/>
					<circle fill="#AAD8CB" cx="171.989" cy="80.678" r="1.155"/>
					<circle fill="#AAD8CB" cx="177.24" cy="80.678" r="1.155"/>
					<circle fill="#AAD8CB" cx="182.491" cy="80.678" r="1.155"/>
					<circle fill="#AAD8CB" cx="135.232" cy="80.678" r="1.155"/>
					<circle fill="#AAD8CB" cx="140.483" cy="80.678" r="1.155"/>
					<circle fill="#AAD8CB" cx="145.734" cy="80.678" r="1.155"/>
					<circle fill="#AAD8CB" cx="150.985" cy="80.678" r="1.155"/>
					<circle fill="#AAD8CB" cx="156.236" cy="80.678" r="1.155"/>
					<circle fill="#AAD8CB" cx="108.977" cy="80.678" r="1.155"/>
					<circle fill="#AAD8CB" cx="114.228" cy="80.678" r="1.155"/>
					<circle fill="#AAD8CB" cx="119.479" cy="80.678" r="1.155"/>
					<circle fill="#AAD8CB" cx="124.73" cy="80.678" r="1.155"/>
					<circle fill="#AAD8CB" cx="129.981" cy="80.678" r="1.155"/>
					<circle fill="#AAD8CB" cx="82.722" cy="80.678" r="1.155"/>
					<circle fill="#AAD8CB" cx="87.973" cy="80.678" r="1.155"/>
					<circle fill="#AAD8CB" cx="93.224" cy="80.678" r="1.155"/>
					<circle fill="#AAD8CB" cx="98.475" cy="80.678" r="1.155"/>
					<circle fill="#AAD8CB" cx="103.726" cy="80.678" r="1.155"/>
					<circle fill="#AAD8CB" cx="56.467" cy="80.678" r="1.155"/>
					<circle fill="#AAD8CB" cx="61.718" cy="80.678" r="1.155"/>
					<circle fill="#AAD8CB" cx="66.969" cy="80.678" r="1.155"/>
					<circle fill="#AAD8CB" cx="72.22" cy="80.678" r="1.155"/>
					<circle fill="#AAD8CB" cx="77.471" cy="80.678" r="1.155"/>
					<circle fill="#AAD8CB" cx="30.213" cy="80.678" r="1.155"/>
					<circle fill="#AAD8CB" cx="35.464" cy="80.678" r="1.155"/>
					<circle fill="#AAD8CB" cx="40.715" cy="80.678" r="1.155"/>
					<circle fill="#AAD8CB" cx="45.966" cy="80.678" r="1.155"/>
					<circle fill="#AAD8CB" cx="51.216" cy="80.678" r="1.155"/>
					<circle fill="#AAD8CB" cx="3.958" cy="80.678" r="1.155"/>
					<circle fill="#AAD8CB" cx="9.209" cy="80.678" r="1.155"/>
					<circle fill="#AAD8CB" cx="14.46" cy="80.678" r="1.155"/>
					<circle fill="#AAD8CB" cx="19.711" cy="80.678" r="1.155"/>
					<circle fill="#AAD8CB" cx="24.962" cy="80.678" r="1.155"/>
				</g>
				<g display="inline">
					<circle fill="#AAD8CB" cx="185.116" cy="75.983" r="1.155"/>
					<circle fill="#AAD8CB" cx="190.367" cy="75.983" r="1.155"/>
					<circle fill="#AAD8CB" cx="195.618" cy="75.983" r="1.155"/>
					<circle fill="#AAD8CB" cx="200.869" cy="75.983" r="1.155"/>
					<circle fill="#AAD8CB" cx="206.12" cy="75.983" r="1.155"/>
					<circle fill="#AAD8CB" cx="158.861" cy="75.983" r="1.155"/>
					<circle fill="#AAD8CB" cx="164.112" cy="75.983" r="1.155"/>
					<circle fill="#AAD8CB" cx="169.363" cy="75.983" r="1.155"/>
					<circle fill="#AAD8CB" cx="174.614" cy="75.983" r="1.155"/>
					<circle fill="#AAD8CB" cx="179.865" cy="75.983" r="1.155"/>
					<circle fill="#AAD8CB" cx="132.606" cy="75.983" r="1.155"/>
					<circle fill="#AAD8CB" cx="137.857" cy="75.983" r="1.155"/>
					<circle fill="#AAD8CB" cx="143.108" cy="75.983" r="1.155"/>
					<circle fill="#AAD8CB" cx="148.359" cy="75.983" r="1.155"/>
					<circle fill="#AAD8CB" cx="153.61" cy="75.983" r="1.155"/>
					<circle fill="#AAD8CB" cx="106.352" cy="75.983" r="1.155"/>
					<circle fill="#AAD8CB" cx="111.603" cy="75.983" r="1.155"/>
					<circle fill="#AAD8CB" cx="116.854" cy="75.983" r="1.155"/>
					<circle fill="#AAD8CB" cx="122.104" cy="75.983" r="1.155"/>
					<circle fill="#AAD8CB" cx="127.355" cy="75.983" r="1.155"/>
					<circle fill="#AAD8CB" cx="80.097" cy="75.983" r="1.155"/>
					<circle fill="#AAD8CB" cx="85.348" cy="75.983" r="1.155"/>
					<circle fill="#AAD8CB" cx="90.599" cy="75.983" r="1.155"/>
					<circle fill="#AAD8CB" cx="95.85" cy="75.983" r="1.155"/>
					<circle fill="#AAD8CB" cx="101.101" cy="75.983" r="1.155"/>
					<circle fill="#AAD8CB" cx="53.842" cy="75.983" r="1.155"/>
					<circle fill="#AAD8CB" cx="59.093" cy="75.983" r="1.155"/>
					<circle fill="#AAD8CB" cx="64.344" cy="75.983" r="1.155"/>
					<circle fill="#AAD8CB" cx="69.595" cy="75.983" r="1.155"/>
					<circle fill="#AAD8CB" cx="74.846" cy="75.983" r="1.155"/>
					<circle fill="#AAD8CB" cx="27.587" cy="75.983" r="1.155"/>
					<circle fill="#AAD8CB" cx="32.838" cy="75.983" r="1.155"/>
					<circle fill="#AAD8CB" cx="38.089" cy="75.983" r="1.155"/>
					<circle fill="#AAD8CB" cx="43.34" cy="75.983" r="1.155"/>
					<circle fill="#AAD8CB" cx="48.591" cy="75.983" r="1.155"/>
					<circle fill="#AAD8CB" cx="1.332" cy="75.983" r="1.155"/>
					<circle fill="#AAD8CB" cx="6.583" cy="75.983" r="1.155"/>
					<circle fill="#AAD8CB" cx="11.834" cy="75.983" r="1.155"/>
					<circle fill="#AAD8CB" cx="17.085" cy="75.983" r="1.155"/>
					<circle fill="#AAD8CB" cx="22.336" cy="75.983" r="1.155"/>
				</g>
				<g display="inline">
					<circle fill="#AAD8CB" cx="187.741" cy="90.353" r="1.155"/>
					<circle fill="#AAD8CB" cx="192.992" cy="90.353" r="1.155"/>
					<circle fill="#AAD8CB" cx="198.243" cy="90.353" r="1.155"/>
					<circle fill="#AAD8CB" cx="203.494" cy="90.353" r="1.155"/>
					<circle fill="#AAD8CB" cx="208.745" cy="90.353" r="1.155"/>
					<circle fill="#AAD8CB" cx="161.487" cy="90.353" r="1.155"/>
					<circle fill="#AAD8CB" cx="166.738" cy="90.353" r="1.155"/>
					<circle fill="#AAD8CB" cx="171.989" cy="90.353" r="1.155"/>
					<circle fill="#AAD8CB" cx="177.24" cy="90.353" r="1.155"/>
					<circle fill="#AAD8CB" cx="182.491" cy="90.353" r="1.155"/>
					<circle fill="#AAD8CB" cx="135.232" cy="90.353" r="1.155"/>
					<circle fill="#AAD8CB" cx="140.483" cy="90.353" r="1.155"/>
					<circle fill="#AAD8CB" cx="145.734" cy="90.353" r="1.155"/>
					<circle fill="#AAD8CB" cx="150.985" cy="90.353" r="1.155"/>
					<circle fill="#AAD8CB" cx="156.236" cy="90.353" r="1.155"/>
					<circle fill="#AAD8CB" cx="108.977" cy="90.353" r="1.155"/>
					<circle fill="#AAD8CB" cx="114.228" cy="90.353" r="1.155"/>
					<circle fill="#AAD8CB" cx="119.479" cy="90.353" r="1.155"/>
					<circle fill="#AAD8CB" cx="124.73" cy="90.353" r="1.155"/>
					<circle fill="#AAD8CB" cx="129.981" cy="90.353" r="1.155"/>
					<circle fill="#AAD8CB" cx="82.722" cy="90.353" r="1.155"/>
					<circle fill="#AAD8CB" cx="87.973" cy="90.353" r="1.155"/>
					<circle fill="#AAD8CB" cx="93.224" cy="90.353" r="1.155"/>
					<circle fill="#AAD8CB" cx="98.475" cy="90.353" r="1.155"/>
					<circle fill="#AAD8CB" cx="103.726" cy="90.353" r="1.155"/>
					<circle fill="#AAD8CB" cx="56.467" cy="90.353" r="1.155"/>
					<circle fill="#AAD8CB" cx="61.718" cy="90.353" r="1.155"/>
					<circle fill="#AAD8CB" cx="66.969" cy="90.353" r="1.155"/>
					<circle fill="#AAD8CB" cx="72.22" cy="90.353" r="1.155"/>
					<circle fill="#AAD8CB" cx="77.471" cy="90.353" r="1.155"/>
					<circle fill="#AAD8CB" cx="30.213" cy="90.353" r="1.155"/>
					<circle fill="#AAD8CB" cx="35.464" cy="90.353" r="1.155"/>
					<circle fill="#AAD8CB" cx="40.715" cy="90.353" r="1.155"/>
					<circle fill="#AAD8CB" cx="45.966" cy="90.353" r="1.155"/>
					<circle fill="#AAD8CB" cx="51.216" cy="90.353" r="1.155"/>
					<circle fill="#AAD8CB" cx="3.958" cy="90.353" r="1.155"/>
					<circle fill="#AAD8CB" cx="9.209" cy="90.353" r="1.155"/>
					<circle fill="#AAD8CB" cx="14.46" cy="90.353" r="1.155"/>
					<circle fill="#AAD8CB" cx="19.711" cy="90.353" r="1.155"/>
					<circle fill="#AAD8CB" cx="24.962" cy="90.353" r="1.155"/>
				</g>
				<g display="inline">
					<circle fill="#AAD8CB" cx="185.116" cy="85.658" r="1.155"/>
					<circle fill="#AAD8CB" cx="190.367" cy="85.658" r="1.155"/>
					<circle fill="#AAD8CB" cx="195.618" cy="85.658" r="1.155"/>
					<circle fill="#AAD8CB" cx="200.869" cy="85.658" r="1.155"/>
					<circle fill="#AAD8CB" cx="206.12" cy="85.658" r="1.155"/>
					<circle fill="#AAD8CB" cx="158.861" cy="85.658" r="1.155"/>
					<circle fill="#AAD8CB" cx="164.112" cy="85.658" r="1.155"/>
					<circle fill="#AAD8CB" cx="169.363" cy="85.658" r="1.155"/>
					<circle fill="#AAD8CB" cx="174.614" cy="85.658" r="1.155"/>
					<circle fill="#AAD8CB" cx="179.865" cy="85.658" r="1.155"/>
					<circle fill="#AAD8CB" cx="132.606" cy="85.658" r="1.155"/>
					<circle fill="#AAD8CB" cx="137.857" cy="85.658" r="1.155"/>
					<circle fill="#AAD8CB" cx="143.108" cy="85.658" r="1.155"/>
					<circle fill="#AAD8CB" cx="148.359" cy="85.658" r="1.155"/>
					<circle fill="#AAD8CB" cx="153.61" cy="85.658" r="1.155"/>
					<circle fill="#AAD8CB" cx="106.352" cy="85.658" r="1.155"/>
					<circle fill="#AAD8CB" cx="111.603" cy="85.658" r="1.155"/>
					<circle fill="#AAD8CB" cx="116.854" cy="85.658" r="1.155"/>
					<circle fill="#AAD8CB" cx="122.104" cy="85.658" r="1.155"/>
					<circle fill="#AAD8CB" cx="127.355" cy="85.658" r="1.155"/>
					<circle fill="#AAD8CB" cx="80.097" cy="85.658" r="1.155"/>
					<circle fill="#AAD8CB" cx="85.348" cy="85.658" r="1.155"/>
					<circle fill="#AAD8CB" cx="90.599" cy="85.658" r="1.155"/>
					<circle fill="#AAD8CB" cx="95.85" cy="85.658" r="1.155"/>
					<circle fill="#AAD8CB" cx="101.101" cy="85.658" r="1.155"/>
					<circle fill="#AAD8CB" cx="53.842" cy="85.658" r="1.155"/>
					<circle fill="#AAD8CB" cx="59.093" cy="85.658" r="1.155"/>
					<circle fill="#AAD8CB" cx="64.344" cy="85.658" r="1.155"/>
					<circle fill="#AAD8CB" cx="69.595" cy="85.658" r="1.155"/>
					<circle fill="#AAD8CB" cx="74.846" cy="85.658" r="1.155"/>
					<circle fill="#AAD8CB" cx="27.587" cy="85.658" r="1.155"/>
					<circle fill="#AAD8CB" cx="32.838" cy="85.658" r="1.155"/>
					<circle fill="#AAD8CB" cx="38.089" cy="85.658" r="1.155"/>
					<circle fill="#AAD8CB" cx="43.34" cy="85.658" r="1.155"/>
					<circle fill="#AAD8CB" cx="48.591" cy="85.658" r="1.155"/>
					<circle fill="#AAD8CB" cx="1.332" cy="85.658" r="1.155"/>
					<circle fill="#AAD8CB" cx="6.583" cy="85.658" r="1.155"/>
					<circle fill="#AAD8CB" cx="11.834" cy="85.658" r="1.155"/>
					<circle fill="#AAD8CB" cx="17.085" cy="85.658" r="1.155"/>
					<circle fill="#AAD8CB" cx="22.336" cy="85.658" r="1.155"/>
				</g>
				<g display="inline">
					<circle fill="#AAD8CB" cx="187.741" cy="99.803" r="1.155"/>
					<circle fill="#AAD8CB" cx="192.992" cy="99.803" r="1.155"/>
					<circle fill="#AAD8CB" cx="198.243" cy="99.803" r="1.155"/>
					<circle fill="#AAD8CB" cx="203.494" cy="99.803" r="1.155"/>
					<circle fill="#AAD8CB" cx="208.745" cy="99.803" r="1.155"/>
					<circle fill="#AAD8CB" cx="161.487" cy="99.803" r="1.155"/>
					<circle fill="#AAD8CB" cx="166.738" cy="99.803" r="1.155"/>
					<circle fill="#AAD8CB" cx="171.989" cy="99.803" r="1.155"/>
					<circle fill="#AAD8CB" cx="177.24" cy="99.803" r="1.155"/>
					<circle fill="#AAD8CB" cx="182.491" cy="99.803" r="1.155"/>
					<circle fill="#AAD8CB" cx="135.232" cy="99.803" r="1.155"/>
					<circle fill="#AAD8CB" cx="140.483" cy="99.803" r="1.155"/>
					<circle fill="#AAD8CB" cx="145.734" cy="99.803" r="1.155"/>
					<circle fill="#AAD8CB" cx="150.985" cy="99.803" r="1.155"/>
					<circle fill="#AAD8CB" cx="156.236" cy="99.803" r="1.155"/>
					<circle fill="#AAD8CB" cx="108.977" cy="99.803" r="1.155"/>
					<circle fill="#AAD8CB" cx="114.228" cy="99.803" r="1.155"/>
					<circle fill="#AAD8CB" cx="119.479" cy="99.803" r="1.155"/>
					<circle fill="#AAD8CB" cx="124.73" cy="99.803" r="1.155"/>
					<circle fill="#AAD8CB" cx="129.981" cy="99.803" r="1.155"/>
					<circle fill="#AAD8CB" cx="82.722" cy="99.803" r="1.155"/>
					<circle fill="#AAD8CB" cx="87.973" cy="99.803" r="1.155"/>
					<circle fill="#AAD8CB" cx="93.224" cy="99.803" r="1.155"/>
					<circle fill="#AAD8CB" cx="98.475" cy="99.803" r="1.155"/>
					<circle fill="#AAD8CB" cx="103.726" cy="99.803" r="1.155"/>
					<circle fill="#AAD8CB" cx="56.467" cy="99.803" r="1.155"/>
					<circle fill="#AAD8CB" cx="61.718" cy="99.803" r="1.155"/>
					<circle fill="#AAD8CB" cx="66.969" cy="99.803" r="1.155"/>
					<circle fill="#AAD8CB" cx="72.22" cy="99.803" r="1.155"/>
					<circle fill="#AAD8CB" cx="77.471" cy="99.803" r="1.155"/>
					<circle fill="#AAD8CB" cx="30.213" cy="99.803" r="1.155"/>
					<circle fill="#AAD8CB" cx="35.464" cy="99.803" r="1.155"/>
					<circle fill="#AAD8CB" cx="40.715" cy="99.803" r="1.155"/>
					<circle fill="#AAD8CB" cx="45.966" cy="99.803" r="1.155"/>
					<circle fill="#AAD8CB" cx="51.216" cy="99.803" r="1.155"/>
					<circle fill="#AAD8CB" cx="3.958" cy="99.803" r="1.155"/>
					<circle fill="#AAD8CB" cx="9.209" cy="99.803" r="1.155"/>
					<circle fill="#AAD8CB" cx="14.46" cy="99.803" r="1.155"/>
					<circle fill="#AAD8CB" cx="19.711" cy="99.803" r="1.155"/>
					<circle fill="#AAD8CB" cx="24.962" cy="99.803" r="1.155"/>
				</g>
				<g display="inline">
					<circle fill="#AAD8CB" cx="185.116" cy="95.108" r="1.155"/>
					<circle fill="#AAD8CB" cx="190.367" cy="95.108" r="1.155"/>
					<circle fill="#AAD8CB" cx="195.618" cy="95.108" r="1.155"/>
					<circle fill="#AAD8CB" cx="200.869" cy="95.108" r="1.155"/>
					<circle fill="#AAD8CB" cx="206.12" cy="95.108" r="1.155"/>
					<circle fill="#AAD8CB" cx="158.861" cy="95.108" r="1.155"/>
					<circle fill="#AAD8CB" cx="164.112" cy="95.108" r="1.155"/>
					<circle fill="#AAD8CB" cx="169.363" cy="95.108" r="1.155"/>
					<circle fill="#AAD8CB" cx="174.614" cy="95.108" r="1.155"/>
					<circle fill="#AAD8CB" cx="179.865" cy="95.108" r="1.155"/>
					<circle fill="#AAD8CB" cx="132.606" cy="95.108" r="1.155"/>
					<circle fill="#AAD8CB" cx="137.857" cy="95.108" r="1.155"/>
					<circle fill="#AAD8CB" cx="143.108" cy="95.108" r="1.155"/>
					<circle fill="#AAD8CB" cx="148.359" cy="95.108" r="1.155"/>
					<circle fill="#AAD8CB" cx="153.61" cy="95.108" r="1.155"/>
					<circle fill="#AAD8CB" cx="106.352" cy="95.108" r="1.155"/>
					<circle fill="#AAD8CB" cx="111.603" cy="95.108" r="1.155"/>
					<circle fill="#AAD8CB" cx="116.854" cy="95.108" r="1.155"/>
					<circle fill="#AAD8CB" cx="122.104" cy="95.108" r="1.155"/>
					<circle fill="#AAD8CB" cx="127.355" cy="95.108" r="1.155"/>
					<circle fill="#AAD8CB" cx="80.097" cy="95.108" r="1.155"/>
					<circle fill="#AAD8CB" cx="85.348" cy="95.108" r="1.155"/>
					<circle fill="#AAD8CB" cx="90.599" cy="95.108" r="1.155"/>
					<circle fill="#AAD8CB" cx="95.85" cy="95.108" r="1.155"/>
					<circle fill="#AAD8CB" cx="101.101" cy="95.108" r="1.155"/>
					<circle fill="#AAD8CB" cx="53.842" cy="95.108" r="1.155"/>
					<circle fill="#AAD8CB" cx="59.093" cy="95.108" r="1.155"/>
					<circle fill="#AAD8CB" cx="64.344" cy="95.108" r="1.155"/>
					<circle fill="#AAD8CB" cx="69.595" cy="95.108" r="1.155"/>
					<circle fill="#AAD8CB" cx="74.846" cy="95.108" r="1.155"/>
					<circle fill="#AAD8CB" cx="27.587" cy="95.108" r="1.155"/>
					<circle fill="#AAD8CB" cx="32.838" cy="95.108" r="1.155"/>
					<circle fill="#AAD8CB" cx="38.089" cy="95.108" r="1.155"/>
					<circle fill="#AAD8CB" cx="43.34" cy="95.108" r="1.155"/>
					<circle fill="#AAD8CB" cx="48.591" cy="95.108" r="1.155"/>
					<circle fill="#AAD8CB" cx="1.332" cy="95.108" r="1.155"/>
					<circle fill="#AAD8CB" cx="6.583" cy="95.108" r="1.155"/>
					<circle fill="#AAD8CB" cx="11.834" cy="95.108" r="1.155"/>
					<circle fill="#AAD8CB" cx="17.085" cy="95.108" r="1.155"/>
					<circle fill="#AAD8CB" cx="22.336" cy="95.108" r="1.155"/>
				</g>
				<g display="inline">
					<circle fill="#AAD8CB" cx="187.741" cy="109.252" r="1.155"/>
					<circle fill="#AAD8CB" cx="192.992" cy="109.252" r="1.155"/>
					<circle fill="#AAD8CB" cx="198.243" cy="109.252" r="1.155"/>
					<circle fill="#AAD8CB" cx="203.494" cy="109.252" r="1.155"/>
					<circle fill="#AAD8CB" cx="208.745" cy="109.252" r="1.155"/>
					<circle fill="#AAD8CB" cx="161.487" cy="109.252" r="1.155"/>
					<circle fill="#AAD8CB" cx="166.738" cy="109.252" r="1.155"/>
					<circle fill="#AAD8CB" cx="171.989" cy="109.252" r="1.155"/>
					<circle fill="#AAD8CB" cx="177.24" cy="109.252" r="1.155"/>
					<circle fill="#AAD8CB" cx="182.491" cy="109.252" r="1.155"/>
					<circle fill="#AAD8CB" cx="135.232" cy="109.252" r="1.155"/>
					<circle fill="#AAD8CB" cx="140.483" cy="109.252" r="1.155"/>
					<circle fill="#AAD8CB" cx="145.734" cy="109.252" r="1.155"/>
					<circle fill="#AAD8CB" cx="150.985" cy="109.252" r="1.155"/>
					<circle fill="#AAD8CB" cx="156.236" cy="109.252" r="1.155"/>
					<circle fill="#AAD8CB" cx="108.977" cy="109.252" r="1.155"/>
					<circle fill="#AAD8CB" cx="114.228" cy="109.252" r="1.155"/>
					<circle fill="#AAD8CB" cx="119.479" cy="109.252" r="1.155"/>
					<circle fill="#AAD8CB" cx="124.73" cy="109.252" r="1.155"/>
					<circle fill="#AAD8CB" cx="129.981" cy="109.252" r="1.155"/>
					<circle fill="#AAD8CB" cx="82.722" cy="109.252" r="1.155"/>
					<circle fill="#AAD8CB" cx="87.973" cy="109.252" r="1.155"/>
					<circle fill="#AAD8CB" cx="93.224" cy="109.252" r="1.155"/>
					<circle fill="#AAD8CB" cx="98.475" cy="109.252" r="1.155"/>
					<circle fill="#AAD8CB" cx="103.726" cy="109.252" r="1.155"/>
					<circle fill="#AAD8CB" cx="56.467" cy="109.252" r="1.155"/>
					<circle fill="#AAD8CB" cx="61.718" cy="109.252" r="1.155"/>
					<circle fill="#AAD8CB" cx="66.969" cy="109.252" r="1.155"/>
					<circle fill="#AAD8CB" cx="72.22" cy="109.252" r="1.155"/>
					<circle fill="#AAD8CB" cx="77.471" cy="109.252" r="1.155"/>
					<circle fill="#AAD8CB" cx="30.213" cy="109.252" r="1.155"/>
					<circle fill="#AAD8CB" cx="35.464" cy="109.252" r="1.155"/>
					<circle fill="#AAD8CB" cx="40.715" cy="109.252" r="1.155"/>
					<circle fill="#AAD8CB" cx="45.966" cy="109.252" r="1.155"/>
					<circle fill="#AAD8CB" cx="51.216" cy="109.252" r="1.155"/>
					<circle fill="#AAD8CB" cx="3.958" cy="109.252" r="1.155"/>
					<circle fill="#AAD8CB" cx="9.209" cy="109.252" r="1.155"/>
					<circle fill="#AAD8CB" cx="14.46" cy="109.252" r="1.155"/>
					<circle fill="#AAD8CB" cx="19.711" cy="109.252" r="1.155"/>
					<circle fill="#AAD8CB" cx="24.962" cy="109.252" r="1.155"/>
				</g>
				<g display="inline">
					<circle fill="#AAD8CB" cx="185.116" cy="104.558" r="1.155"/>
					<circle fill="#AAD8CB" cx="190.367" cy="104.558" r="1.155"/>
					<circle fill="#AAD8CB" cx="195.618" cy="104.558" r="1.155"/>
					<circle fill="#AAD8CB" cx="200.869" cy="104.558" r="1.155"/>
					<circle fill="#AAD8CB" cx="206.12" cy="104.558" r="1.155"/>
					<circle fill="#AAD8CB" cx="158.861" cy="104.558" r="1.155"/>
					<circle fill="#AAD8CB" cx="164.112" cy="104.558" r="1.155"/>
					<circle fill="#AAD8CB" cx="169.363" cy="104.558" r="1.155"/>
					<circle fill="#AAD8CB" cx="174.614" cy="104.558" r="1.155"/>
					<circle fill="#AAD8CB" cx="179.865" cy="104.558" r="1.155"/>
					<circle fill="#AAD8CB" cx="132.606" cy="104.558" r="1.155"/>
					<circle fill="#AAD8CB" cx="137.857" cy="104.558" r="1.155"/>
					<circle fill="#AAD8CB" cx="143.108" cy="104.558" r="1.155"/>
					<circle fill="#AAD8CB" cx="148.359" cy="104.558" r="1.155"/>
					<circle fill="#AAD8CB" cx="153.61" cy="104.558" r="1.155"/>
					<circle fill="#AAD8CB" cx="106.352" cy="104.558" r="1.155"/>
					<circle fill="#AAD8CB" cx="111.603" cy="104.558" r="1.155"/>
					<circle fill="#AAD8CB" cx="116.854" cy="104.558" r="1.155"/>
					<circle fill="#AAD8CB" cx="122.104" cy="104.558" r="1.155"/>
					<circle fill="#AAD8CB" cx="127.355" cy="104.558" r="1.155"/>
					<circle fill="#AAD8CB" cx="80.097" cy="104.558" r="1.155"/>
					<circle fill="#AAD8CB" cx="85.348" cy="104.558" r="1.155"/>
					<circle fill="#AAD8CB" cx="90.599" cy="104.558" r="1.155"/>
					<circle fill="#AAD8CB" cx="95.85" cy="104.558" r="1.155"/>
					<circle fill="#AAD8CB" cx="101.101" cy="104.558" r="1.155"/>
					<circle fill="#AAD8CB" cx="53.842" cy="104.558" r="1.155"/>
					<circle fill="#AAD8CB" cx="59.093" cy="104.558" r="1.155"/>
					<circle fill="#AAD8CB" cx="64.344" cy="104.558" r="1.155"/>
					<circle fill="#AAD8CB" cx="69.595" cy="104.558" r="1.155"/>
					<circle fill="#AAD8CB" cx="74.846" cy="104.558" r="1.155"/>
					<circle fill="#AAD8CB" cx="27.587" cy="104.558" r="1.155"/>
					<circle fill="#AAD8CB" cx="32.838" cy="104.558" r="1.155"/>
					<circle fill="#AAD8CB" cx="38.089" cy="104.558" r="1.155"/>
					<circle fill="#AAD8CB" cx="43.34" cy="104.558" r="1.155"/>
					<circle fill="#AAD8CB" cx="48.591" cy="104.558" r="1.155"/>
					<circle fill="#AAD8CB" cx="1.332" cy="104.558" r="1.155"/>
					<circle fill="#AAD8CB" cx="6.583" cy="104.558" r="1.155"/>
					<circle fill="#AAD8CB" cx="11.834" cy="104.558" r="1.155"/>
					<circle fill="#AAD8CB" cx="17.085" cy="104.558" r="1.155"/>
					<circle fill="#AAD8CB" cx="22.336" cy="104.558" r="1.155"/>
				</g>
			</g>
		</g>
	</g>
</g>
<rect x="6.724" y="132.625" fill="#FBBA90" width="189.894" height="61.978"/>
<line fill="none" stroke="#FBBA90" stroke-width="1.981" stroke-miterlimit="10" x1="8.722" y1="126.32" x2="195.706" y2="126.32"/>
<rect x="126.799" y="110.879" fill="#E5E9EC" width="1.011" height="0.506"/>
<rect x="6.724" y="129.397" fill="#FBBA90" width="192.854" height="6.456"/>
<path fill="#FBBA90" stroke="#FBBA90" stroke-width="2.0062" stroke-miterlimit="10" d="M5.074,181.856"/>
<path fill="#FBBA90" stroke="#FBBA90" stroke-width="2" stroke-miterlimit="10" d="M199.578,182.935"/>
<path fill="#FBBA90" stroke="#FBBA90" stroke-width="2" stroke-miterlimit="10" d="M5.074,182.935"/>
<g>
	
		<rect x="34.301" y="151.692" fill="#FFFFFF" stroke="#FEE458" stroke-width="4" stroke-miterlimit="10" width="19.564" height="27.37"/>
	<polygon opacity="0.2" fill="#6CCBD4" enable-background="new    " points="35.502,177.791 52.664,152.962 52.523,177.791 	"/>
</g>
<g>
	
		<rect x="148.75" y="151.692" fill="#FFFFFF" stroke="#FEE458" stroke-width="4" stroke-miterlimit="10" width="19.564" height="27.37"/>
	<polygon opacity="0.2" fill="#6CCBD4" enable-background="new    " points="149.951,177.791 167.113,152.962 166.972,177.791 	"/>
</g>
<g>
	
		<rect x="91.657" y="149.953" fill="#FFFFFF" stroke="#FEE458" stroke-width="4" stroke-miterlimit="10" width="22.835" height="40.754"/>
	<circle opacity="0.2" fill="#6CCBD4" enable-background="new    " cx="106.655" cy="170.856" r="2.726"/>
</g>
<rect x="80.747" y="191.74" fill="#FEE458" width="44.656" height="5.728"/>
<g>
	
		<rect x="92.683" y="58.023" fill="#FFFFFF" stroke="#E65252" stroke-width="4" stroke-miterlimit="10" width="19.564" height="21.919"/>
	<polygon opacity="0.2" fill="#6CCBD4" enable-background="new    " points="93.884,78.925 111.046,59.041 110.905,78.925 	"/>
</g>
</svg>
